INFO: cmd_ln.c(691): Parsing command line:
/usr/local/libexec/sphinxtrain/norm \
	-accumdir /home/za-softcodes/Desktop/FYP/112syllableTraining/bwaccumdir/112syllable_buff_1 \
	-mixwfn /home/za-softcodes/Desktop/FYP/112syllableTraining/model_parameters/112syllable.ci_cont/mixture_weights \
	-tmatfn /home/za-softcodes/Desktop/FYP/112syllableTraining/model_parameters/112syllable.ci_cont/transition_matrices \
	-meanfn /home/za-softcodes/Desktop/FYP/112syllableTraining/model_parameters/112syllable.ci_cont/means \
	-varfn /home/za-softcodes/Desktop/FYP/112syllableTraining/model_parameters/112syllable.ci_cont/variances \
	-fullvar no 

Current configuration:
[NAME]		[DEFLT]	[VALUE]
-accumdir		/home/za-softcodes/Desktop/FYP/112syllableTraining/bwaccumdir/112syllable_buff_1,
-constE		3.0	3.000000e+00
-dcountfn		
-example	no	no
-fullvar	no	no
-help		no	no
-inmeanfn		
-inmixwfn		
-invarfn		
-meanfn			/home/za-softcodes/Desktop/FYP/112syllableTraining/model_parameters/112syllable.ci_cont/means
-mixwfn			/home/za-softcodes/Desktop/FYP/112syllableTraining/model_parameters/112syllable.ci_cont/mixture_weights
-mmie		no	no
-oaccumdir		
-regmatfn		
-tiedvar	no	no
-tmatfn			/home/za-softcodes/Desktop/FYP/112syllableTraining/model_parameters/112syllable.ci_cont/transition_matrices
-varfn			/home/za-softcodes/Desktop/FYP/112syllableTraining/model_parameters/112syllable.ci_cont/variances

INFO: main.c(206): Reading and accumulating counts from /home/za-softcodes/Desktop/FYP/112syllableTraining/bwaccumdir/112syllable_buff_1
INFO: s3mixw_io.c(116): Read /home/za-softcodes/Desktop/FYP/112syllableTraining/bwaccumdir/112syllable_buff_1/mixw_counts [72x1x1 array]
INFO: s3tmat_io.c(115): Read /home/za-softcodes/Desktop/FYP/112syllableTraining/bwaccumdir/112syllable_buff_1/tmat_counts [24x3x4 array]
INFO: s3gau_io.c(379): Read /home/za-softcodes/Desktop/FYP/112syllableTraining/bwaccumdir/112syllable_buff_1/gauden_counts with means with vars [72x1x1 vector arrays]
INFO: main.c(389): Normalizing mean for n_mgau= 72, n_stream= 1, n_density= 1
INFO: main.c(413): Normalizing var
INFO: s3mixw_io.c(232): Wrote /home/za-softcodes/Desktop/FYP/112syllableTraining/model_parameters/112syllable.ci_cont/mixture_weights [72x1x1 array]
INFO: s3tmat_io.c(174): Wrote /home/za-softcodes/Desktop/FYP/112syllableTraining/model_parameters/112syllable.ci_cont/transition_matrices [24x3x4 array]
INFO: s3gau_io.c(226): Wrote /home/za-softcodes/Desktop/FYP/112syllableTraining/model_parameters/112syllable.ci_cont/means [72x1x1 array]
INFO: s3gau_io.c(226): Wrote /home/za-softcodes/Desktop/FYP/112syllableTraining/model_parameters/112syllable.ci_cont/variances [72x1x1 array]
Tue Apr 15 18:39:16 2014
Current Overall Likelihood Per Frame = -3.07623956605314
