INFO: cmd_ln.c(691): Parsing command line:
/usr/local/libexec/sphinxtrain/init_gau \
	-meanfn /home/za-softcodes/Desktop/FYP/112syllableTraining/model_parameters/112syllable.ci_cont_flatinitial/globalmean \
	-ctlfn /home/za-softcodes/Desktop/FYP/112syllableTraining/etc/112syllable_train.fileids \
	-part 1 \
	-npart 1 \
	-cepdir /home/za-softcodes/Desktop/FYP/112syllableTraining/feat \
	-cepext mfc \
	-accumdir /home/za-softcodes/Desktop/FYP/112syllableTraining/bwaccumdir/112syllable_buff_1 \
	-agc none \
	-cmn current \
	-varnorm no \
	-feat 1s_c_d_dd \
	-ceplen 13 \
	-fullvar no 

Current configuration:
[NAME]		[DEFLT]		[VALUE]
-accumdir			/home/za-softcodes/Desktop/FYP/112syllableTraining/bwaccumdir/112syllable_buff_1
-agc		none		none
-agcthresh	2.0		2.000000e+00
-cepdir				/home/za-softcodes/Desktop/FYP/112syllableTraining/feat
-cepext		mfc		mfc
-ceplen		13		13
-cmn		current		current
-cmninit	8.0		8.0
-ctlfn				/home/za-softcodes/Desktop/FYP/112syllableTraining/etc/112syllable_train.fileids
-dictfn				
-example	no		no
-fdictfn			
-feat		1s_c_d_dd	1s_c_d_dd
-fullvar	no		no
-help		no		no
-lda				
-ldadim		0		0
-lsnfn				
-meanfn				/home/za-softcodes/Desktop/FYP/112syllableTraining/model_parameters/112syllable.ci_cont_flatinitial/globalmean
-moddeffn			
-npart				1
-nskip				0
-part				1
-runlen				0
-scaleseg	no		no
-segdir				
-segext		v8_seg		v8_seg
-svspec				
-ts2cbfn			
-varnorm	no		no

INFO: feat.c(713): Initializing feature stream to type: '1s_c_d_dd', ceplen=13, CMN='current', VARNORM='no', AGC='none'
INFO: cmn.c(142): mean[0]= 12.00, mean[1..12]= 0.0
INFO: corpus.c(1086): Will process all remaining utts starting at 0
INFO: init_gau.c(145): Computing 1x1x1 variance estimates
INFO: s3gau_io.c(166): Read /home/za-softcodes/Desktop/FYP/112syllableTraining/model_parameters/112syllable.ci_cont_flatinitial/globalmean [1x1x1 array]
INFO: cmn.c(175): CMN: 10.75  0.07 -0.45  0.34 -0.67 -0.05  0.08 -0.56 -0.23 -0.11 -0.05 -0.15 -0.11 
INFO: cmn.c(175): CMN: 10.64 -0.06 -0.44  0.22 -0.69  0.05  0.07 -0.53 -0.21 -0.15 -0.06 -0.13 -0.07 
INFO: cmn.c(175): CMN: 11.08 -0.07 -0.64  0.57 -0.43 -0.16 -0.02 -0.57 -0.11 -0.06  0.01 -0.15 -0.08 
INFO: cmn.c(175): CMN: 11.25 -0.05 -0.69  0.35 -0.39 -0.04  0.05 -0.54 -0.13 -0.00  0.02 -0.16 -0.09 
INFO: cmn.c(175): CMN: 12.01 -0.02 -0.31 -0.19 -0.74  0.08 -0.29 -0.16 -0.03 -0.02 -0.03 -0.01  0.08 
INFO: cmn.c(175): CMN: 11.20 -0.01 -0.25 -0.41 -0.73  0.19 -0.34 -0.13 -0.10  0.03 -0.05  0.11  0.07 
INFO: cmn.c(175): CMN: 11.74  0.06 -0.45  0.15 -0.51  0.07 -0.46 -0.13 -0.09  0.05  0.06 -0.10  0.17 
INFO: cmn.c(175): CMN: 11.18  0.25 -0.34  0.15 -0.60  0.10 -0.46 -0.20 -0.19 -0.02 -0.07 -0.17  0.03 
INFO: cmn.c(175): CMN:  9.26 -0.50 -0.95  0.06 -0.27  0.05  0.07 -0.27 -0.15 -0.22 -0.29 -0.01 -0.23 
INFO: cmn.c(175): CMN: 11.09 -0.60 -0.86 -0.28 -0.44  0.29  0.07 -0.36 -0.10 -0.20 -0.34 -0.03 -0.17 
INFO: cmn.c(175): CMN: 11.46 -0.38 -1.07  0.18 -0.42  0.02  0.18 -0.35 -0.06 -0.13 -0.32 -0.15 -0.10 
INFO: cmn.c(175): CMN: 11.32 -0.26 -0.99  0.14 -0.38  0.01  0.27 -0.44 -0.10 -0.16 -0.27 -0.23 -0.16 
INFO: cmn.c(175): CMN: 11.41  0.28 -0.29  0.12 -0.95 -0.14 -0.09 -0.44  0.15 -0.04 -0.14  0.07 -0.21 
INFO: cmn.c(175): CMN: 11.31  0.17 -0.29 -0.04 -1.03 -0.08 -0.03 -0.36  0.19 -0.03 -0.12  0.13 -0.21 
INFO: cmn.c(175): CMN: 11.54  0.08 -0.37  0.31 -0.92 -0.13 -0.26 -0.28  0.21 -0.13 -0.02  0.02 -0.25 
INFO: cmn.c(175): CMN: 11.11  0.46 -0.32  0.11 -0.88 -0.15 -0.20 -0.38  0.18 -0.05  0.02  0.05 -0.25 
INFO: cmn.c(175): CMN: 12.97  0.18 -0.20  0.04 -0.73  0.10 -0.36 -0.20 -0.13 -0.13 -0.12 -0.26 -0.07 
INFO: cmn.c(175): CMN: 13.07  0.11 -0.12 -0.14 -0.76  0.17 -0.40 -0.15 -0.16 -0.16 -0.13 -0.16 -0.08 
INFO: cmn.c(175): CMN: 13.80 -0.15 -0.34  0.41 -0.49 -0.12 -0.51 -0.07 -0.25 -0.06 -0.12 -0.28  0.11 
INFO: cmn.c(175): CMN: 13.24  0.17 -0.36  0.21 -0.52 -0.11 -0.49 -0.15 -0.19  0.02 -0.09 -0.42 -0.03 
INFO: cmn.c(175): CMN: 11.12  0.56 -0.35 -0.03 -0.69  0.05 -0.27 -0.54 -0.10 -0.22  0.18 -0.27  0.12 
INFO: cmn.c(175): CMN: 11.23  0.28 -0.10 -0.17 -0.94  0.17 -0.33 -0.47 -0.08 -0.27  0.20 -0.34  0.19 
INFO: cmn.c(175): CMN: 11.69  0.30 -0.37  0.31 -0.40 -0.03 -0.48 -0.58 -0.22 -0.30  0.24 -0.39  0.15 
INFO: cmn.c(175): CMN: 10.13  0.60 -0.27  0.14 -0.40  0.04 -0.45 -0.53 -0.26 -0.21  0.18 -0.41 -0.03 
INFO: cmn.c(175): CMN: 12.78  0.12 -0.51  0.07 -0.57  0.09 -0.03 -0.33 -0.10 -0.18  0.04 -0.29  0.07 
INFO: cmn.c(175): CMN: 13.15 -0.23 -0.21 -0.28 -0.31 -0.03 -0.28 -0.27 -0.10  0.14 -0.01 -0.27  0.10 
INFO: cmn.c(175): CMN: 13.83  0.22 -0.53  0.25 -0.33 -0.17 -0.26 -0.34 -0.07 -0.18  0.10 -0.34  0.23 
INFO: cmn.c(175): CMN: 12.90  0.46 -0.48  0.07 -0.31 -0.10 -0.25 -0.36 -0.09 -0.10  0.12 -0.35  0.13 
INFO: cmn.c(175): CMN:  7.27  0.20 -0.24  0.12 -0.59 -0.11  0.05 -0.34  0.04 -0.26  0.01 -0.14 -0.26 
INFO: cmn.c(175): CMN: 12.48  0.13 -0.18 -0.19 -0.71 -0.09 -0.00 -0.34 -0.01 -0.36 -0.04 -0.05 -0.30 
INFO: cmn.c(175): CMN: 12.21  0.04 -0.33  0.45 -0.37 -0.24 -0.17 -0.30 -0.06 -0.16 -0.06 -0.22 -0.18 
INFO: cmn.c(175): CMN: 11.51  0.40 -0.31  0.37 -0.42 -0.21 -0.05 -0.34 -0.08 -0.10  0.04 -0.15 -0.13 
INFO: cmn.c(175): CMN: 11.23  0.85 -0.17 -0.54  0.21 -0.52 -0.15 -0.25 -0.51  0.05 -0.22 -0.22 -0.32 
INFO: cmn.c(175): CMN: 11.03  0.59 -0.11 -0.47 -0.08 -0.29 -0.15 -0.40 -0.32  0.03 -0.24 -0.16 -0.33 
INFO: cmn.c(175): CMN: 12.04  0.52 -0.29 -0.38  0.41 -0.47 -0.45 -0.15 -0.46 -0.03 -0.20 -0.34 -0.29 
INFO: cmn.c(175): CMN: 11.74  0.87 -0.32 -0.47  0.43 -0.55 -0.26 -0.28 -0.45  0.09 -0.20 -0.29 -0.36 
INFO: cmn.c(175): CMN:  9.76  0.31 -0.86  0.31 -0.75 -0.18  0.17 -0.18 -0.10  0.01 -0.13  0.03 -0.08 
INFO: cmn.c(175): CMN:  9.90  0.19 -0.88  0.05 -0.82 -0.06  0.19 -0.19 -0.10 -0.00 -0.29  0.03 -0.08 
INFO: cmn.c(175): CMN: 10.49  0.28 -1.01  0.50 -0.49 -0.31  0.03 -0.37 -0.06  0.04  0.05 -0.00 -0.14 
INFO: cmn.c(175): CMN:  9.36  0.55 -0.76  0.29 -0.44 -0.26  0.02 -0.46 -0.34  0.02  0.05 -0.05 -0.15 
INFO: cmn.c(175): CMN:  9.20 -0.12 -0.47 -0.02 -0.41 -0.20  0.30 -0.15 -0.05 -0.02 -0.28  0.04 -0.16 
INFO: cmn.c(175): CMN:  8.86 -0.24 -0.42 -0.11 -0.40 -0.12  0.30 -0.19  0.01 -0.01 -0.26  0.07 -0.17 
INFO: cmn.c(175): CMN:  9.97 -0.11 -0.58  0.14 -0.23 -0.34  0.31 -0.27 -0.01  0.07 -0.26  0.03 -0.23 
INFO: cmn.c(175): CMN: 10.37 -0.16 -0.57  0.15 -0.35 -0.26  0.23 -0.28 -0.14  0.03 -0.23 -0.09 -0.23 
INFO: cmn.c(175): CMN:  8.88 -0.19 -0.51  0.06 -0.55 -0.27  0.08 -0.38 -0.10  0.00 -0.06  0.06  0.01 
INFO: cmn.c(175): CMN:  8.06 -0.34 -0.41  0.02 -0.50 -0.19  0.03 -0.32 -0.07  0.01 -0.08  0.02  0.06 
INFO: cmn.c(175): CMN:  8.53 -0.17 -0.68  0.29 -0.23 -0.29  0.02 -0.50  0.01 -0.03 -0.01  0.02 -0.07 
INFO: cmn.c(175): CMN:  5.41  0.02 -0.50  0.24 -0.23 -0.17  0.05 -0.38 -0.04  0.03  0.01  0.02 -0.05 
INFO: cmn.c(175): CMN: 11.45 -0.01 -0.04 -0.33 -0.36  0.01 -0.17 -0.13 -0.08 -0.17 -0.11 -0.09 -0.10 
INFO: cmn.c(175): CMN: 11.19 -0.22  0.07 -0.34 -0.42  0.10 -0.25 -0.21  0.00 -0.21 -0.11  0.01 -0.10 
INFO: cmn.c(175): CMN: 11.95 -0.31  0.00 -0.18 -0.10  0.00 -0.36 -0.03 -0.02 -0.26  0.08 -0.14 -0.13 
INFO: cmn.c(175): CMN: 11.90 -0.07 -0.02 -0.37 -0.11 -0.04 -0.32 -0.11 -0.08 -0.14 -0.02 -0.15 -0.18 
INFO: cmn.c(175): CMN: 14.21  0.29 -0.87  0.61 -1.07  0.38 -0.31 -0.34 -0.19 -0.31  0.05 -0.39 -0.02 
INFO: cmn.c(175): CMN: 14.12 -0.03 -0.58  0.46 -1.10  0.32 -0.29 -0.37 -0.09 -0.30 -0.10 -0.17 -0.09 
INFO: cmn.c(175): CMN: 14.31  0.17 -1.11  0.93 -0.66  0.22 -0.50 -0.37 -0.18 -0.51  0.20 -0.59  0.01 
INFO: cmn.c(175): CMN: 14.42  0.32 -0.98  0.77 -0.77  0.31 -0.43 -0.33 -0.26 -0.29  0.19 -0.52 -0.08 
INFO: cmn.c(175): CMN: 14.67 -0.54 -0.59 -0.79 -0.70  0.22 -0.19 -0.00 -0.33  0.09 -0.06 -0.08 -0.21 
INFO: cmn.c(175): CMN: 14.86 -0.81 -0.80 -0.84 -0.50  0.23 -0.43  0.05 -0.38  0.17  0.01 -0.12 -0.25 
INFO: cmn.c(175): CMN: 11.29 -0.05 -0.63 -0.52 -0.42  0.05 -0.30 -0.10 -0.23  0.13 -0.07 -0.15 -0.22 
INFO: cmn.c(175): CMN: 12.94  0.08 -0.73 -0.52 -0.43 -0.05 -0.03 -0.16 -0.30  0.11  0.04 -0.09 -0.36 
INFO: cmn.c(175): CMN: 13.25  0.62 -0.93  0.05 -0.64 -0.10 -0.16 -0.29 -0.34 -0.17 -0.22 -0.13 -0.30 
INFO: cmn.c(175): CMN: 13.45  0.08 -0.72 -0.04 -0.75 -0.11 -0.19 -0.30 -0.23 -0.19 -0.25 -0.16 -0.15 
INFO: cmn.c(175): CMN: 13.88  0.19 -0.90  0.27 -0.39 -0.03 -0.31 -0.48 -0.22 -0.25 -0.19 -0.10 -0.43 
INFO: cmn.c(175): CMN: 13.34  0.34 -0.90  0.28 -0.48 -0.10 -0.16 -0.42 -0.29 -0.27 -0.06 -0.03 -0.44 
INFO: cmn.c(175): CMN: 11.44  1.06 -0.10 -0.43 -0.44 -0.35 -0.17 -0.25 -0.38 -0.12 -0.11 -0.09 -0.14 
INFO: cmn.c(175): CMN: 11.36  0.78 -0.12 -0.50 -0.51 -0.38 -0.19 -0.18 -0.31 -0.13 -0.08 -0.02 -0.11 
INFO: cmn.c(175): CMN: 11.56  0.81 -0.20 -0.42 -0.21 -0.34 -0.40 -0.28 -0.23  0.11 -0.01 -0.10 -0.04 
INFO: cmn.c(175): CMN: 11.66  0.98 -0.17 -0.33 -0.27 -0.34 -0.40 -0.38 -0.33 -0.02  0.02 -0.10 -0.20 
INFO: cmn.c(175): CMN: 11.99  0.25 -0.19  0.10 -0.61 -0.10 -0.23 -0.24 -0.31 -0.15 -0.14 -0.30 -0.11 
INFO: cmn.c(175): CMN: 12.41  0.22 -0.15 -0.12 -0.80 -0.06 -0.27 -0.26 -0.22 -0.15 -0.16 -0.30 -0.07 
INFO: cmn.c(175): CMN: 12.80  0.16 -0.27  0.26 -0.39 -0.10 -0.51 -0.30 -0.39  0.01 -0.19 -0.37 -0.04 
INFO: cmn.c(175): CMN: 12.71  0.33 -0.34  0.13 -0.46 -0.06 -0.36 -0.30 -0.42  0.07 -0.12 -0.44 -0.14 
INFO: cmn.c(175): CMN: 13.46  0.60 -0.60 -0.11 -0.81 -0.14 -0.25 -0.19 -0.16 -0.09  0.13 -0.05 -0.25 
INFO: cmn.c(175): CMN: 13.36  0.60 -0.56 -0.29 -0.81 -0.05 -0.23 -0.23 -0.20 -0.10  0.12 -0.01 -0.22 
INFO: cmn.c(175): CMN: 13.50  0.73 -0.82  0.41 -0.49 -0.13 -0.35 -0.49 -0.31 -0.21 -0.06 -0.27 -0.20 
INFO: cmn.c(175): CMN: 13.21  0.66 -0.76  0.31 -0.63 -0.14 -0.20 -0.49 -0.30 -0.08  0.02 -0.18 -0.28 
INFO: cmn.c(175): CMN: 13.78  0.66 -0.54 -0.23 -0.46 -0.21 -0.22 -0.33 -0.16 -0.11 -0.09 -0.08 -0.32 
INFO: cmn.c(175): CMN: 13.84  0.53 -0.45 -0.40 -0.61 -0.13 -0.20 -0.32 -0.13 -0.17 -0.11  0.01 -0.28 
INFO: cmn.c(175): CMN: 13.85  0.56 -0.60 -0.01 -0.20 -0.30 -0.42 -0.31 -0.21  0.03 -0.14 -0.18 -0.31 
INFO: cmn.c(175): CMN: 13.74  0.55 -0.61 -0.14 -0.29 -0.31 -0.33 -0.28 -0.19  0.02 -0.10 -0.18 -0.38 
INFO: cmn.c(175): CMN: 12.64  0.69  0.04 -0.13 -0.42 -0.18 -0.41 -0.18 -0.30 -0.27 -0.07 -0.15 -0.22 
INFO: cmn.c(175): CMN: 12.55  0.41  0.20 -0.28 -0.53 -0.19 -0.39 -0.17 -0.22 -0.23 -0.08 -0.14 -0.20 
INFO: cmn.c(175): CMN: 12.95  0.55  0.08 -0.14 -0.25 -0.25 -0.55 -0.15 -0.37 -0.26 -0.08 -0.10 -0.36 
INFO: cmn.c(175): CMN: 12.75  0.51 -0.02 -0.09 -0.30 -0.28 -0.52 -0.12 -0.36 -0.25 -0.04 -0.10 -0.37 
INFO: cmn.c(175): CMN: 13.23  0.59 -0.88 -0.12 -0.85 -0.28 -0.44 -0.34 -0.21 -0.24 -0.09 -0.15 -0.22 
INFO: cmn.c(175): CMN: 13.06  0.36 -0.71 -0.12 -0.87 -0.21 -0.46 -0.34 -0.15 -0.25 -0.16 -0.16 -0.20 
INFO: cmn.c(175): CMN: 13.57  0.35 -1.02  0.23 -0.49 -0.40 -0.52 -0.40 -0.25 -0.23 -0.04 -0.26 -0.32 
INFO: cmn.c(175): CMN: 13.12  0.52 -1.00 -0.02 -0.63 -0.29 -0.48 -0.36 -0.25 -0.19  0.01 -0.22 -0.38 
INFO: cmn.c(175): CMN: 13.05  0.38 -0.28  0.28 -0.72 -0.14 -0.13 -0.35 -0.13 -0.13 -0.15 -0.21 -0.17 
INFO: cmn.c(175): CMN: 13.22  0.44 -0.19 -0.06 -0.91 -0.03 -0.19 -0.45 -0.02 -0.12 -0.21 -0.16 -0.17 
INFO: cmn.c(175): CMN: 13.37  0.38 -0.38  0.47 -0.52 -0.18 -0.36 -0.49 -0.05 -0.13 -0.17 -0.33 -0.02 
INFO: cmn.c(175): CMN: 13.33  0.43 -0.41  0.37 -0.52 -0.19 -0.38 -0.42 -0.08 -0.08 -0.15 -0.24 -0.09 
INFO: cmn.c(175): CMN: 10.75  0.07 -0.45  0.34 -0.67 -0.05  0.08 -0.56 -0.23 -0.11 -0.05 -0.15 -0.11 
INFO: cmn.c(175): CMN: 10.64 -0.06 -0.44  0.22 -0.69  0.05  0.07 -0.53 -0.21 -0.15 -0.06 -0.13 -0.07 
INFO: cmn.c(175): CMN: 11.08 -0.07 -0.64  0.57 -0.43 -0.16 -0.02 -0.57 -0.11 -0.06  0.01 -0.15 -0.08 
INFO: cmn.c(175): CMN: 11.25 -0.05 -0.69  0.35 -0.39 -0.04  0.05 -0.54 -0.13 -0.00  0.02 -0.16 -0.09 
INFO: cmn.c(175): CMN: 12.01 -0.02 -0.31 -0.19 -0.74  0.08 -0.29 -0.16 -0.03 -0.02 -0.03 -0.01  0.08 
INFO: cmn.c(175): CMN: 11.20 -0.01 -0.25 -0.41 -0.73  0.19 -0.34 -0.13 -0.10  0.03 -0.05  0.11  0.07 
INFO: cmn.c(175): CMN: 11.74  0.06 -0.45  0.15 -0.51  0.07 -0.46 -0.13 -0.09  0.05  0.06 -0.10  0.17 
[100] INFO: cmn.c(175): CMN: 11.18  0.25 -0.34  0.15 -0.60  0.10 -0.46 -0.20 -0.19 -0.02 -0.07 -0.17  0.03 
INFO: cmn.c(175): CMN:  9.26 -0.50 -0.95  0.06 -0.27  0.05  0.07 -0.27 -0.15 -0.22 -0.29 -0.01 -0.23 
INFO: cmn.c(175): CMN: 11.09 -0.60 -0.86 -0.28 -0.44  0.29  0.07 -0.36 -0.10 -0.20 -0.34 -0.03 -0.17 
INFO: cmn.c(175): CMN: 11.46 -0.38 -1.07  0.18 -0.42  0.02  0.18 -0.35 -0.06 -0.13 -0.32 -0.15 -0.10 
INFO: cmn.c(175): CMN: 11.32 -0.26 -0.99  0.14 -0.38  0.01  0.27 -0.44 -0.10 -0.16 -0.27 -0.23 -0.16 
INFO: cmn.c(175): CMN: 11.41  0.28 -0.29  0.12 -0.95 -0.14 -0.09 -0.44  0.15 -0.04 -0.14  0.07 -0.21 
INFO: cmn.c(175): CMN: 11.31  0.17 -0.29 -0.04 -1.03 -0.08 -0.03 -0.36  0.19 -0.03 -0.12  0.13 -0.21 
INFO: cmn.c(175): CMN: 11.54  0.08 -0.37  0.31 -0.92 -0.13 -0.26 -0.28  0.21 -0.13 -0.02  0.02 -0.25 
INFO: cmn.c(175): CMN: 11.11  0.46 -0.32  0.11 -0.88 -0.15 -0.20 -0.38  0.18 -0.05  0.02  0.05 -0.25 
INFO: cmn.c(175): CMN: 12.97  0.18 -0.20  0.04 -0.73  0.10 -0.36 -0.20 -0.13 -0.13 -0.12 -0.26 -0.07 
INFO: cmn.c(175): CMN: 13.07  0.11 -0.12 -0.14 -0.76  0.17 -0.40 -0.15 -0.16 -0.16 -0.13 -0.16 -0.08 
INFO: cmn.c(175): CMN: 13.80 -0.15 -0.34  0.41 -0.49 -0.12 -0.51 -0.07 -0.25 -0.06 -0.12 -0.28  0.11 
INFO: cmn.c(175): CMN: 13.24  0.17 -0.36  0.21 -0.52 -0.11 -0.49 -0.15 -0.19  0.02 -0.09 -0.42 -0.03 
INFO: cmn.c(175): CMN: 11.12  0.56 -0.35 -0.03 -0.69  0.05 -0.27 -0.54 -0.10 -0.22  0.18 -0.27  0.12 
INFO: cmn.c(175): CMN: 11.23  0.28 -0.10 -0.17 -0.94  0.17 -0.33 -0.47 -0.08 -0.27  0.20 -0.34  0.19 
INFO: cmn.c(175): CMN: 11.69  0.30 -0.37  0.31 -0.40 -0.03 -0.48 -0.58 -0.22 -0.30  0.24 -0.39  0.15 
INFO: cmn.c(175): CMN: 10.13  0.60 -0.27  0.14 -0.40  0.04 -0.45 -0.53 -0.26 -0.21  0.18 -0.41 -0.03 
INFO: cmn.c(175): CMN: 12.78  0.12 -0.51  0.07 -0.57  0.09 -0.03 -0.33 -0.10 -0.18  0.04 -0.29  0.07 
INFO: cmn.c(175): CMN: 13.15 -0.23 -0.21 -0.28 -0.31 -0.03 -0.28 -0.27 -0.10  0.14 -0.01 -0.27  0.10 
INFO: cmn.c(175): CMN: 13.83  0.22 -0.53  0.25 -0.33 -0.17 -0.26 -0.34 -0.07 -0.18  0.10 -0.34  0.23 
INFO: cmn.c(175): CMN: 12.90  0.46 -0.48  0.07 -0.31 -0.10 -0.25 -0.36 -0.09 -0.10  0.12 -0.35  0.13 
INFO: cmn.c(175): CMN:  7.27  0.20 -0.24  0.12 -0.59 -0.11  0.05 -0.34  0.04 -0.26  0.01 -0.14 -0.26 
INFO: cmn.c(175): CMN: 12.48  0.13 -0.18 -0.19 -0.71 -0.09 -0.00 -0.34 -0.01 -0.36 -0.04 -0.05 -0.30 
INFO: cmn.c(175): CMN: 12.21  0.04 -0.33  0.45 -0.37 -0.24 -0.17 -0.30 -0.06 -0.16 -0.06 -0.22 -0.18 
INFO: cmn.c(175): CMN: 11.51  0.40 -0.31  0.37 -0.42 -0.21 -0.05 -0.34 -0.08 -0.10  0.04 -0.15 -0.13 
INFO: cmn.c(175): CMN: 11.23  0.85 -0.17 -0.54  0.21 -0.52 -0.15 -0.25 -0.51  0.05 -0.22 -0.22 -0.32 
INFO: cmn.c(175): CMN: 11.03  0.59 -0.11 -0.47 -0.08 -0.29 -0.15 -0.40 -0.32  0.03 -0.24 -0.16 -0.33 
INFO: cmn.c(175): CMN: 12.04  0.52 -0.29 -0.38  0.41 -0.47 -0.45 -0.15 -0.46 -0.03 -0.20 -0.34 -0.29 
INFO: cmn.c(175): CMN: 11.74  0.87 -0.32 -0.47  0.43 -0.55 -0.26 -0.28 -0.45  0.09 -0.20 -0.29 -0.36 
INFO: cmn.c(175): CMN:  9.76  0.31 -0.86  0.31 -0.75 -0.18  0.17 -0.18 -0.10  0.01 -0.13  0.03 -0.08 
INFO: cmn.c(175): CMN:  9.90  0.19 -0.88  0.05 -0.82 -0.06  0.19 -0.19 -0.10 -0.00 -0.29  0.03 -0.08 
INFO: cmn.c(175): CMN: 10.49  0.28 -1.01  0.50 -0.49 -0.31  0.03 -0.37 -0.06  0.04  0.05 -0.00 -0.14 
INFO: cmn.c(175): CMN:  9.36  0.55 -0.76  0.29 -0.44 -0.26  0.02 -0.46 -0.34  0.02  0.05 -0.05 -0.15 
INFO: cmn.c(175): CMN:  9.20 -0.12 -0.47 -0.02 -0.41 -0.20  0.30 -0.15 -0.05 -0.02 -0.28  0.04 -0.16 
INFO: cmn.c(175): CMN:  8.86 -0.24 -0.42 -0.11 -0.40 -0.12  0.30 -0.19  0.01 -0.01 -0.26  0.07 -0.17 
INFO: cmn.c(175): CMN:  9.97 -0.11 -0.58  0.14 -0.23 -0.34  0.31 -0.27 -0.01  0.07 -0.26  0.03 -0.23 
INFO: cmn.c(175): CMN: 10.37 -0.16 -0.57  0.15 -0.35 -0.26  0.23 -0.28 -0.14  0.03 -0.23 -0.09 -0.23 
INFO: cmn.c(175): CMN:  8.88 -0.19 -0.51  0.06 -0.55 -0.27  0.08 -0.38 -0.10  0.00 -0.06  0.06  0.01 
INFO: cmn.c(175): CMN:  8.06 -0.34 -0.41  0.02 -0.50 -0.19  0.03 -0.32 -0.07  0.01 -0.08  0.02  0.06 
INFO: cmn.c(175): CMN:  8.53 -0.17 -0.68  0.29 -0.23 -0.29  0.02 -0.50  0.01 -0.03 -0.01  0.02 -0.07 
INFO: cmn.c(175): CMN:  5.41  0.02 -0.50  0.24 -0.23 -0.17  0.05 -0.38 -0.04  0.03  0.01  0.02 -0.05 
INFO: cmn.c(175): CMN: 11.45 -0.01 -0.04 -0.33 -0.36  0.01 -0.17 -0.13 -0.08 -0.17 -0.11 -0.09 -0.10 
INFO: cmn.c(175): CMN: 11.19 -0.22  0.07 -0.34 -0.42  0.10 -0.25 -0.21  0.00 -0.21 -0.11  0.01 -0.10 
INFO: cmn.c(175): CMN: 11.95 -0.31  0.00 -0.18 -0.10  0.00 -0.36 -0.03 -0.02 -0.26  0.08 -0.14 -0.13 
INFO: cmn.c(175): CMN: 11.90 -0.07 -0.02 -0.37 -0.11 -0.04 -0.32 -0.11 -0.08 -0.14 -0.02 -0.15 -0.18 
INFO: cmn.c(175): CMN: 14.21  0.29 -0.87  0.61 -1.07  0.38 -0.31 -0.34 -0.19 -0.31  0.05 -0.39 -0.02 
INFO: cmn.c(175): CMN: 14.12 -0.03 -0.58  0.46 -1.10  0.32 -0.29 -0.37 -0.09 -0.30 -0.10 -0.17 -0.09 
INFO: cmn.c(175): CMN: 14.31  0.17 -1.11  0.93 -0.66  0.22 -0.50 -0.37 -0.18 -0.51  0.20 -0.59  0.01 
INFO: cmn.c(175): CMN: 14.42  0.32 -0.98  0.77 -0.77  0.31 -0.43 -0.33 -0.26 -0.29  0.19 -0.52 -0.08 
INFO: cmn.c(175): CMN: 14.67 -0.54 -0.59 -0.79 -0.70  0.22 -0.19 -0.00 -0.33  0.09 -0.06 -0.08 -0.21 
INFO: cmn.c(175): CMN: 14.86 -0.81 -0.80 -0.84 -0.50  0.23 -0.43  0.05 -0.38  0.17  0.01 -0.12 -0.25 
INFO: cmn.c(175): CMN: 11.29 -0.05 -0.63 -0.52 -0.42  0.05 -0.30 -0.10 -0.23  0.13 -0.07 -0.15 -0.22 
INFO: cmn.c(175): CMN: 12.94  0.08 -0.73 -0.52 -0.43 -0.05 -0.03 -0.16 -0.30  0.11  0.04 -0.09 -0.36 
INFO: cmn.c(175): CMN: 13.25  0.62 -0.93  0.05 -0.64 -0.10 -0.16 -0.29 -0.34 -0.17 -0.22 -0.13 -0.30 
INFO: cmn.c(175): CMN: 13.45  0.08 -0.72 -0.04 -0.75 -0.11 -0.19 -0.30 -0.23 -0.19 -0.25 -0.16 -0.15 
INFO: cmn.c(175): CMN: 13.88  0.19 -0.90  0.27 -0.39 -0.03 -0.31 -0.48 -0.22 -0.25 -0.19 -0.10 -0.43 
INFO: cmn.c(175): CMN: 13.34  0.34 -0.90  0.28 -0.48 -0.10 -0.16 -0.42 -0.29 -0.27 -0.06 -0.03 -0.44 
INFO: cmn.c(175): CMN: 11.44  1.06 -0.10 -0.43 -0.44 -0.35 -0.17 -0.25 -0.38 -0.12 -0.11 -0.09 -0.14 
INFO: cmn.c(175): CMN: 11.36  0.78 -0.12 -0.50 -0.51 -0.38 -0.19 -0.18 -0.31 -0.13 -0.08 -0.02 -0.11 
INFO: cmn.c(175): CMN: 11.56  0.81 -0.20 -0.42 -0.21 -0.34 -0.40 -0.28 -0.23  0.11 -0.01 -0.10 -0.04 
INFO: cmn.c(175): CMN: 11.66  0.98 -0.17 -0.33 -0.27 -0.34 -0.40 -0.38 -0.33 -0.02  0.02 -0.10 -0.20 
INFO: cmn.c(175): CMN: 11.99  0.25 -0.19  0.10 -0.61 -0.10 -0.23 -0.24 -0.31 -0.15 -0.14 -0.30 -0.11 
INFO: cmn.c(175): CMN: 12.41  0.22 -0.15 -0.12 -0.80 -0.06 -0.27 -0.26 -0.22 -0.15 -0.16 -0.30 -0.07 
INFO: cmn.c(175): CMN: 12.80  0.16 -0.27  0.26 -0.39 -0.10 -0.51 -0.30 -0.39  0.01 -0.19 -0.37 -0.04 
INFO: cmn.c(175): CMN: 12.71  0.33 -0.34  0.13 -0.46 -0.06 -0.36 -0.30 -0.42  0.07 -0.12 -0.44 -0.14 
INFO: cmn.c(175): CMN: 13.46  0.60 -0.60 -0.11 -0.81 -0.14 -0.25 -0.19 -0.16 -0.09  0.13 -0.05 -0.25 
INFO: cmn.c(175): CMN: 13.36  0.60 -0.56 -0.29 -0.81 -0.05 -0.23 -0.23 -0.20 -0.10  0.12 -0.01 -0.22 
INFO: cmn.c(175): CMN: 13.50  0.73 -0.82  0.41 -0.49 -0.13 -0.35 -0.49 -0.31 -0.21 -0.06 -0.27 -0.20 
INFO: cmn.c(175): CMN: 13.21  0.66 -0.76  0.31 -0.63 -0.14 -0.20 -0.49 -0.30 -0.08  0.02 -0.18 -0.28 
INFO: cmn.c(175): CMN: 13.78  0.66 -0.54 -0.23 -0.46 -0.21 -0.22 -0.33 -0.16 -0.11 -0.09 -0.08 -0.32 
INFO: cmn.c(175): CMN: 13.84  0.53 -0.45 -0.40 -0.61 -0.13 -0.20 -0.32 -0.13 -0.17 -0.11  0.01 -0.28 
INFO: cmn.c(175): CMN: 13.85  0.56 -0.60 -0.01 -0.20 -0.30 -0.42 -0.31 -0.21  0.03 -0.14 -0.18 -0.31 
INFO: cmn.c(175): CMN: 13.74  0.55 -0.61 -0.14 -0.29 -0.31 -0.33 -0.28 -0.19  0.02 -0.10 -0.18 -0.38 
INFO: cmn.c(175): CMN: 12.64  0.69  0.04 -0.13 -0.42 -0.18 -0.41 -0.18 -0.30 -0.27 -0.07 -0.15 -0.22 
INFO: cmn.c(175): CMN: 12.55  0.41  0.20 -0.28 -0.53 -0.19 -0.39 -0.17 -0.22 -0.23 -0.08 -0.14 -0.20 
INFO: cmn.c(175): CMN: 12.95  0.55  0.08 -0.14 -0.25 -0.25 -0.55 -0.15 -0.37 -0.26 -0.08 -0.10 -0.36 
INFO: cmn.c(175): CMN: 12.75  0.51 -0.02 -0.09 -0.30 -0.28 -0.52 -0.12 -0.36 -0.25 -0.04 -0.10 -0.37 
INFO: cmn.c(175): CMN: 13.23  0.59 -0.88 -0.12 -0.85 -0.28 -0.44 -0.34 -0.21 -0.24 -0.09 -0.15 -0.22 
INFO: cmn.c(175): CMN: 13.06  0.36 -0.71 -0.12 -0.87 -0.21 -0.46 -0.34 -0.15 -0.25 -0.16 -0.16 -0.20 
INFO: cmn.c(175): CMN: 13.57  0.35 -1.02  0.23 -0.49 -0.40 -0.52 -0.40 -0.25 -0.23 -0.04 -0.26 -0.32 
INFO: cmn.c(175): CMN: 13.12  0.52 -1.00 -0.02 -0.63 -0.29 -0.48 -0.36 -0.25 -0.19  0.01 -0.22 -0.38 
INFO: cmn.c(175): CMN: 13.05  0.38 -0.28  0.28 -0.72 -0.14 -0.13 -0.35 -0.13 -0.13 -0.15 -0.21 -0.17 
INFO: cmn.c(175): CMN: 13.22  0.44 -0.19 -0.06 -0.91 -0.03 -0.19 -0.45 -0.02 -0.12 -0.21 -0.16 -0.17 
INFO: cmn.c(175): CMN: 13.37  0.38 -0.38  0.47 -0.52 -0.18 -0.36 -0.49 -0.05 -0.13 -0.17 -0.33 -0.02 
INFO: cmn.c(175): CMN: 13.33  0.43 -0.41  0.37 -0.52 -0.19 -0.38 -0.42 -0.08 -0.08 -0.15 -0.24 -0.09 
INFO: s3gau_io.c(478): Wrote /home/za-softcodes/Desktop/FYP/112syllableTraining/bwaccumdir/112syllable_buff_1/gauden_counts with vars (2pass) [1x1x1 vector arrays]
Tue Apr 15 18:39:07 2014
