        INFO: main.c(229): Compiled on Apr 11 2014 at 10:45:13
INFO: cmd_ln.c(691): Parsing command line:
/usr/local/libexec/sphinxtrain/bw \
	-moddeffn /home/za-softcodes/Desktop/FYP/112ArabicSphinxTraining/model_architecture/112Arabic.200.mdef \
	-ts2cbfn .cont. \
	-mixwfn /home/za-softcodes/Desktop/FYP/112ArabicSphinxTraining/model_parameters/112Arabic.cd_cont_200/mixture_weights \
	-mwfloor 1e-05 \
	-tpfloor 1e-05 \
	-tmatfn /home/za-softcodes/Desktop/FYP/112ArabicSphinxTraining/model_parameters/112Arabic.cd_cont_200/transition_matrices \
	-meanfn /home/za-softcodes/Desktop/FYP/112ArabicSphinxTraining/model_parameters/112Arabic.cd_cont_200/means \
	-varfn /home/za-softcodes/Desktop/FYP/112ArabicSphinxTraining/model_parameters/112Arabic.cd_cont_200/variances \
	-dictfn /home/za-softcodes/Desktop/FYP/112ArabicSphinxTraining/etc/112Arabic.dic \
	-fdictfn /home/za-softcodes/Desktop/FYP/112ArabicSphinxTraining/etc/112Arabic.filler \
	-ctlfn /home/za-softcodes/Desktop/FYP/112ArabicSphinxTraining/etc/112Arabic_train.fileids \
	-part 1 \
	-npart 1 \
	-cepdir /home/za-softcodes/Desktop/FYP/112ArabicSphinxTraining/feat \
	-cepext mfc \
	-lsnfn /home/za-softcodes/Desktop/FYP/112ArabicSphinxTraining/etc/112Arabic_train.transcription \
	-accumdir /home/za-softcodes/Desktop/FYP/112ArabicSphinxTraining/bwaccumdir/112Arabic_buff_1 \
	-varfloor 0.0001 \
	-topn 1 \
	-abeam 1e-90 \
	-bbeam 1e-10 \
	-agc none \
	-cmn current \
	-varnorm no \
	-meanreest yes \
	-varreest yes \
	-2passvar yes \
	-tmatreest yes \
	-fullvar no \
	-diagfull no \
	-feat 1s_c_d_dd \
	-ceplen 13 \
	-timing no 

Current configuration:
[NAME]			[DEFLT]		[VALUE]
-2passvar		no		yes
-abeam			1e-100		1.000000e-90
-accumdir				/home/za-softcodes/Desktop/FYP/112ArabicSphinxTraining/bwaccumdir/112Arabic_buff_1
-agc			none		none
-agcthresh		2.0		2.000000e+00
-bbeam			1e-100		1.000000e-10
-cb2mllrfn		.1cls.		.1cls.
-cepdir					/home/za-softcodes/Desktop/FYP/112ArabicSphinxTraining/feat
-cepext			mfc		mfc
-ceplen			13		13
-ckptintv				0
-cmn			current		current
-cmninit		8.0		8.0
-ctlfn					/home/za-softcodes/Desktop/FYP/112ArabicSphinxTraining/etc/112Arabic_train.fileids
-diagfull		no		no
-dictfn					/home/za-softcodes/Desktop/FYP/112ArabicSphinxTraining/etc/112Arabic.dic
-example		no		no
-fdictfn				/home/za-softcodes/Desktop/FYP/112ArabicSphinxTraining/etc/112Arabic.filler
-feat			1s_c_d_dd	1s_c_d_dd
-fullsuffixmatch	no		no
-fullvar		no		no
-help			no		no
-hmmdir					
-latdir					
-latext					
-lda					
-ldaaccum		no		no
-ldadim			0		0
-lsnfn					/home/za-softcodes/Desktop/FYP/112ArabicSphinxTraining/etc/112Arabic_train.transcription
-lw			11.5		1.150000e+01
-maxuttlen		0		0
-meanfn					/home/za-softcodes/Desktop/FYP/112ArabicSphinxTraining/model_parameters/112Arabic.cd_cont_200/means
-meanreest		yes		yes
-mixwfn					/home/za-softcodes/Desktop/FYP/112ArabicSphinxTraining/model_parameters/112Arabic.cd_cont_200/mixture_weights
-mixwreest		yes		yes
-mllrmat				
-mmie			no		no
-mmie_type		rand		rand
-moddeffn				/home/za-softcodes/Desktop/FYP/112ArabicSphinxTraining/model_architecture/112Arabic.200.mdef
-mwfloor		0.00001		1.000000e-05
-npart					1
-nskip					0
-outphsegdir				
-outputfullpath		no		no
-part					1
-pdumpdir				
-phsegdir				
-phsegext		phseg		phseg
-runlen			-1		-1
-sentdir				
-sentext		sent		sent
-spthresh		0.0		0.000000e+00
-svspec					
-timing			yes		no
-tmatfn					/home/za-softcodes/Desktop/FYP/112ArabicSphinxTraining/model_parameters/112Arabic.cd_cont_200/transition_matrices
-tmatreest		yes		yes
-topn			4		1
-tpfloor		0.0001		1.000000e-05
-ts2cbfn				.cont.
-varfloor		0.00001		1.000000e-04
-varfn					/home/za-softcodes/Desktop/FYP/112ArabicSphinxTraining/model_parameters/112Arabic.cd_cont_200/variances
-varnorm		no		no
-varreest		yes		yes
-viterbi		no		no

INFO: feat.c(713): Initializing feature stream to type: '1s_c_d_dd', ceplen=13, CMN='current', VARNORM='no', AGC='none'
INFO: cmn.c(142): mean[0]= 12.00, mean[1..12]= 0.0
INFO: main.c(318): Reading /home/za-softcodes/Desktop/FYP/112ArabicSphinxTraining/model_architecture/112Arabic.200.mdef
INFO: model_def_io.c(573): Model definition info:
INFO: model_def_io.c(574): 258 total models defined (25 base, 233 tri)
INFO: model_def_io.c(575): 1032 total states
INFO: model_def_io.c(576): 198 total tied states
INFO: model_def_io.c(577): 75 total tied CI states
INFO: model_def_io.c(578): 25 total tied transition matrices
INFO: model_def_io.c(579): 4 max state/model
INFO: model_def_io.c(580): 4 min state/model
INFO: s3mixw_io.c(116): Read /home/za-softcodes/Desktop/FYP/112ArabicSphinxTraining/model_parameters/112Arabic.cd_cont_200/mixture_weights [198x1x1 array]
INFO: s3tmat_io.c(115): Read /home/za-softcodes/Desktop/FYP/112ArabicSphinxTraining/model_parameters/112Arabic.cd_cont_200/transition_matrices [25x3x4 array]
INFO: mod_inv.c(300): inserting tprob floor 1.000000e-05 and renormalizing
INFO: s3gau_io.c(166): Read /home/za-softcodes/Desktop/FYP/112ArabicSphinxTraining/model_parameters/112Arabic.cd_cont_200/means [198x1x1 array]
INFO: s3gau_io.c(166): Read /home/za-softcodes/Desktop/FYP/112ArabicSphinxTraining/model_parameters/112Arabic.cd_cont_200/variances [198x1x1 array]
INFO: gauden.c(183): 198 total mgau
INFO: gauden.c(157): 1 feature streams (|0|=39 )
INFO: gauden.c(194): 1 total densities
INFO: gauden.c(97): min_var=1.000000e-04
INFO: gauden.c(172): compute 1 densities/frame
INFO: main.c(430): Will reestimate mixing weights.
INFO: main.c(432): Will reestimate means.
INFO: main.c(434): Will reestimate variances.
INFO: main.c(442): Will reestimate transition matrices
INFO: main.c(455): Reading main lexicon: /home/za-softcodes/Desktop/FYP/112ArabicSphinxTraining/etc/112Arabic.dic
INFO: lexicon.c(220): 12 entries added from /home/za-softcodes/Desktop/FYP/112ArabicSphinxTraining/etc/112Arabic.dic
INFO: main.c(465): Reading filler lexicon: /home/za-softcodes/Desktop/FYP/112ArabicSphinxTraining/etc/112Arabic.filler
INFO: lexicon.c(220): 3 entries added from /home/za-softcodes/Desktop/FYP/112ArabicSphinxTraining/etc/112Arabic.filler
INFO: corpus.c(1086): Will process all remaining utts starting at 0
INFO: main.c(665): Reestimation: Baum-Welch
INFO: cmn.c(175): CMN: 10.75  0.07 -0.45  0.34 -0.67 -0.05  0.08 -0.56 -0.23 -0.11 -0.05 -0.15 -0.11 
column defns
	<seq>
	<id>
	<n_frame_in>
	<n_frame_del>
	<n_state_shmm>
	<avg_states_alpha>
	<avg_states_beta>
	<avg_states_reest>
	<avg_posterior_prune>
	<frame_log_lik>
	<utt_log_lik>
	... timing info ... 
utt>     0                    112001  323    0    52 16  1 3 1.853463e-12 6.635943e+00 2.143410e+03
INFO: cmn.c(175): CMN: 10.64 -0.06 -0.44  0.22 -0.69  0.05  0.07 -0.53 -0.21 -0.15 -0.06 -0.13 -0.07 
utt>     1                    112002  291    0    44 16  1 2 1.359032e-12 5.198793e+00 1.512849e+03
INFO: cmn.c(175): CMN: 11.08 -0.07 -0.64  0.57 -0.43 -0.16 -0.02 -0.57 -0.11 -0.06  0.01 -0.15 -0.08 
utt>     2                    112003  352    0    56 13  1 2 1.159338e-12 7.551154e+00 2.658006e+03
INFO: cmn.c(175): CMN: 11.25 -0.05 -0.69  0.35 -0.39 -0.04  0.05 -0.54 -0.13 -0.00  0.02 -0.16 -0.09 
utt>     3                    112004  433    0    68 17  1 3 1.970446e-12 5.452538e+00 2.360949e+03
INFO: cmn.c(175): CMN: 12.01 -0.02 -0.31 -0.19 -0.74  0.08 -0.29 -0.16 -0.03 -0.02 -0.03 -0.01  0.08 
utt>     4                    112001  367    0    52 13  1 2 1.754176e-12 1.374607e-01 5.044807e+01
INFO: cmn.c(175): CMN: 11.20 -0.01 -0.25 -0.41 -0.73  0.19 -0.34 -0.13 -0.10  0.03 -0.05  0.11  0.07 
utt>     5                    112002  349    0    44 14  1 2 1.692058e-12 1.171930e+00 4.090036e+02
INFO: cmn.c(175): CMN: 11.74  0.06 -0.45  0.15 -0.51  0.07 -0.46 -0.13 -0.09  0.05  0.06 -0.10  0.17 
utt>     6                    112003  388    0    56 13  1 2 1.332125e-12 3.937944e+00 1.527922e+03
INFO: cmn.c(175): CMN: 11.18  0.25 -0.34  0.15 -0.60  0.10 -0.46 -0.20 -0.19 -0.02 -0.07 -0.17  0.03 
utt>     7                    112004  513    0    68 14  1 2 1.278294e-12 2.682319e+00 1.376029e+03
INFO: cmn.c(175): CMN:  9.26 -0.50 -0.95  0.06 -0.27  0.05  0.07 -0.27 -0.15 -0.22 -0.29 -0.01 -0.23 
utt>     8                    112001  767    0    52 14  1 2 8.648940e-13 2.796753e+00 2.145110e+03
INFO: cmn.c(175): CMN: 11.09 -0.60 -0.86 -0.28 -0.44  0.29  0.07 -0.36 -0.10 -0.20 -0.34 -0.03 -0.17 
utt>     9                    112002  547    0    44 14  1 1 6.484413e-13 3.027954e+00 1.656291e+03
INFO: cmn.c(175): CMN: 11.46 -0.38 -1.07  0.18 -0.42  0.02  0.18 -0.35 -0.06 -0.13 -0.32 -0.15 -0.10 
utt>    10                    112003  717    0    56 15  1 2 1.228472e-12 4.475547e+00 3.208967e+03
INFO: cmn.c(175): CMN: 11.32 -0.26 -0.99  0.14 -0.38  0.01  0.27 -0.44 -0.10 -0.16 -0.27 -0.23 -0.16 
utt>    11                    112004  890    0    68 17  1 2 1.405550e-12 1.057594e+00 9.412588e+02
INFO: cmn.c(175): CMN: 11.41  0.28 -0.29  0.12 -0.95 -0.14 -0.09 -0.44  0.15 -0.04 -0.14  0.07 -0.21 
utt>    12                    112001  294    0    52 19  1 3 2.995257e-12 6.452128e+00 1.896926e+03
INFO: cmn.c(175): CMN: 11.31  0.17 -0.29 -0.04 -1.03 -0.08 -0.03 -0.36  0.19 -0.03 -0.12  0.13 -0.21 
utt>    13                    112002  255    0    44 18  1 3 3.783358e-12 7.544435e+00 1.923831e+03
INFO: cmn.c(175): CMN: 11.54  0.08 -0.37  0.31 -0.92 -0.13 -0.26 -0.28  0.21 -0.13 -0.02  0.02 -0.25 
utt>    14                    112003  276    0    56 19  1 2 1.621026e-12 8.154394e+00 2.250613e+03
INFO: cmn.c(175): CMN: 11.11  0.46 -0.32  0.11 -0.88 -0.15 -0.20 -0.38  0.18 -0.05  0.02  0.05 -0.25 
utt>    15                    112004  456    0    68 20  1 2 2.603799e-12 7.519927e+00 3.429087e+03
INFO: cmn.c(175): CMN: 12.97  0.18 -0.20  0.04 -0.73  0.10 -0.36 -0.20 -0.13 -0.13 -0.12 -0.26 -0.07 
utt>    16                    112001  271    0    52 17  1 3 2.063890e-12 5.973921e+00 1.618933e+03
INFO: cmn.c(175): CMN: 13.07  0.11 -0.12 -0.14 -0.76  0.17 -0.40 -0.15 -0.16 -0.16 -0.13 -0.16 -0.08 
utt>    17                    112002  216    0    44 19  1 3 2.806303e-12 4.893698e+00 1.057039e+03
INFO: cmn.c(175): CMN: 13.80 -0.15 -0.34  0.41 -0.49 -0.12 -0.51 -0.07 -0.25 -0.06 -0.12 -0.28  0.11 
utt>    18                    112003  278    0    56 16  1 2 2.476644e-12 7.614797e+00 2.116914e+03
INFO: cmn.c(175): CMN: 13.24  0.17 -0.36  0.21 -0.52 -0.11 -0.49 -0.15 -0.19  0.02 -0.09 -0.42 -0.03 
utt>    19                    112004  383    0    68 19  1 3 1.989666e-12 7.797538e+00 2.986457e+03
INFO: cmn.c(175): CMN: 11.12  0.56 -0.35 -0.03 -0.69  0.05 -0.27 -0.54 -0.10 -0.22  0.18 -0.27  0.12 
utt>    20                    112001  307    0    52 16  1 3 2.001509e-12 2.541549e+00 7.802556e+02
INFO: cmn.c(175): CMN: 11.23  0.28 -0.10 -0.17 -0.94  0.17 -0.33 -0.47 -0.08 -0.27  0.20 -0.34  0.19 
utt>    21                    112002  263    0    44 16  1 2 8.769966e-13 2.708103e+00 7.122311e+02
INFO: cmn.c(175): CMN: 11.69  0.30 -0.37  0.31 -0.40 -0.03 -0.48 -0.58 -0.22 -0.30  0.24 -0.39  0.15 
utt>    22                    112003  307    0    56 14  1 3 2.278174e-12 6.421286e+00 1.971335e+03
INFO: cmn.c(175): CMN: 10.13  0.60 -0.27  0.14 -0.40  0.04 -0.45 -0.53 -0.26 -0.21  0.18 -0.41 -0.03 
utt>    23                    112004  495    0    68 17  1 2 1.977127e-12 7.011208e+00 3.470548e+03
INFO: cmn.c(175): CMN: 12.78  0.12 -0.51  0.07 -0.57  0.09 -0.03 -0.33 -0.10 -0.18  0.04 -0.29  0.07 
utt>    24                    112001  294    0    52 18  1 3 1.552294e-12 3.666918e+00 1.078074e+03
INFO: cmn.c(175): CMN: 13.15 -0.23 -0.21 -0.28 -0.31 -0.03 -0.28 -0.27 -0.10  0.14 -0.01 -0.27  0.10 
utt>    25                    112002  208    0    44 16  1 3 3.172128e-12 5.851870e+00 1.217189e+03
INFO: cmn.c(175): CMN: 13.83  0.22 -0.53  0.25 -0.33 -0.17 -0.26 -0.34 -0.07 -0.18  0.10 -0.34  0.23 
utt>    26                    112003  247    0    56 17  2 3 4.266990e-12 2.486076e+00 6.140607e+02
INFO: cmn.c(175): CMN: 12.90  0.46 -0.48  0.07 -0.31 -0.10 -0.25 -0.36 -0.09 -0.10  0.12 -0.35  0.13 
utt>    27                    112004  338    0    68 21  1 3 3.457561e-12 4.091612e+00 1.382965e+03
INFO: cmn.c(175): CMN:  7.27  0.20 -0.24  0.12 -0.59 -0.11  0.05 -0.34  0.04 -0.26  0.01 -0.14 -0.26 
utt>    28                    112001  354    0    52 17  1 2 1.773523e-12 -3.685045e-01 -1.304506e+02
INFO: cmn.c(175): CMN: 12.48  0.13 -0.18 -0.19 -0.71 -0.09 -0.00 -0.34 -0.01 -0.36 -0.04 -0.05 -0.30 
utt>    29                    112002  216    0    44 18  1 3 2.807736e-12 -3.542037e-01 -7.650801e+01
INFO: cmn.c(175): CMN: 12.21  0.04 -0.33  0.45 -0.37 -0.24 -0.17 -0.30 -0.06 -0.16 -0.06 -0.22 -0.18 
utt>    30                    112003  315    0    56 16  1 2 1.141613e-12 4.800072e+00 1.512023e+03
INFO: cmn.c(175): CMN: 11.51  0.40 -0.31  0.37 -0.42 -0.21 -0.05 -0.34 -0.08 -0.10  0.04 -0.15 -0.13 
utt>    31                    112004  399    0    68 23  2 3 2.330433e-12 3.008706e+00 1.200474e+03
INFO: cmn.c(175): CMN: 11.23  0.85 -0.17 -0.54  0.21 -0.52 -0.15 -0.25 -0.51  0.05 -0.22 -0.22 -0.32 
utt>    32                    112001  352    0    52 14  1 2 1.570387e-12 -7.500057e+00 -2.640020e+03
INFO: cmn.c(175): CMN: 11.03  0.59 -0.11 -0.47 -0.08 -0.29 -0.15 -0.40 -0.32  0.03 -0.24 -0.16 -0.33 
utt>    33                    112002  323    0    44 14  1 2 1.948885e-12 -6.522160e+00 -2.106658e+03
INFO: cmn.c(175): CMN: 12.04  0.52 -0.29 -0.38  0.41 -0.47 -0.45 -0.15 -0.46 -0.03 -0.20 -0.34 -0.29 
utt>    34                    112003  362    0    56 13  1 2 1.222849e-12 -5.112663e+00 -1.850784e+03
INFO: cmn.c(175): CMN: 11.74  0.87 -0.32 -0.47  0.43 -0.55 -0.26 -0.28 -0.45  0.09 -0.20 -0.29 -0.36 
utt>    35                    112004  459    0    68 15  1 2 1.426899e-12 -5.749329e+00 -2.638942e+03
INFO: cmn.c(175): CMN:  9.76  0.31 -0.86  0.31 -0.75 -0.18  0.17 -0.18 -0.10  0.01 -0.13  0.03 -0.08 
utt>    36                    112001  589    0    52 13  1 2 1.285806e-12 5.292510e+00 3.117289e+03
INFO: cmn.c(175): CMN:  9.90  0.19 -0.88  0.05 -0.82 -0.06  0.19 -0.19 -0.10 -0.00 -0.29  0.03 -0.08 
utt>    37                    112002  511    0    44 15  1 2 1.328328e-12 5.233779e+00 2.674461e+03
INFO: cmn.c(175): CMN: 10.49  0.28 -1.01  0.50 -0.49 -0.31  0.03 -0.37 -0.06  0.04  0.05 -0.00 -0.14 
utt>    38                    112003  600    0    56 14  1 2 1.078232e-12 7.652836e+00 4.591702e+03
INFO: cmn.c(175): CMN:  9.36  0.55 -0.76  0.29 -0.44 -0.26  0.02 -0.46 -0.34  0.02  0.05 -0.05 -0.15 
utt>    39                    112004  819    0    68 14  1 2 1.240786e-12 7.061954e+00 5.783741e+03
INFO: cmn.c(175): CMN:  9.20 -0.12 -0.47 -0.02 -0.41 -0.20  0.30 -0.15 -0.05 -0.02 -0.28  0.04 -0.16 
utt>    40                    112001  913    0    52 12  1 1 9.714869e-13 6.557692e+00 5.987172e+03
INFO: cmn.c(175): CMN:  8.86 -0.24 -0.42 -0.11 -0.40 -0.12  0.30 -0.19  0.01 -0.01 -0.26  0.07 -0.17 
utt>    41                    112002  704    0    44 12  1 1 7.473023e-13 3.820424e+00 2.689579e+03
INFO: cmn.c(175): CMN:  9.97 -0.11 -0.58  0.14 -0.23 -0.34  0.31 -0.27 -0.01  0.07 -0.26  0.03 -0.23 
utt>    42                    112003  817    0    56 10  1 1 4.349443e-13 1.505376e+00 1.229892e+03
INFO: cmn.c(175): CMN: 10.37 -0.16 -0.57  0.15 -0.35 -0.26  0.23 -0.28 -0.14  0.03 -0.23 -0.09 -0.23 
utt>    43                    112004  955    0    68 13  1 1 7.214779e-13 3.064992e+00 2.927067e+03
INFO: cmn.c(175): CMN:  8.88 -0.19 -0.51  0.06 -0.55 -0.27  0.08 -0.38 -0.10  0.00 -0.06  0.06  0.01 
utt>    44                    112001  602    0    52 10  1 1 8.552002e-13 7.185158e+00 4.325465e+03
INFO: cmn.c(175): CMN:  8.06 -0.34 -0.41  0.02 -0.50 -0.19  0.03 -0.32 -0.07  0.01 -0.08  0.02  0.06 
utt>    45                    112002  589    0    44 9  1 1 2.446017e-13 8.739485e+00 5.147557e+03
INFO: cmn.c(175): CMN:  8.53 -0.17 -0.68  0.29 -0.23 -0.29  0.02 -0.50  0.01 -0.03 -0.01  0.02 -0.07 
utt>    46                    112003  613    0    56 10  1 2 1.624694e-12 3.576635e+00 2.192477e+03
INFO: cmn.c(175): CMN:  5.41  0.02 -0.50  0.24 -0.23 -0.17  0.05 -0.38 -0.04  0.03  0.01  0.02 -0.05 
utt>    47                    112004  845    0    68 9  1 1 1.013826e-12 3.147717e+00 2.659821e+03
INFO: cmn.c(175): CMN: 11.45 -0.01 -0.04 -0.33 -0.36  0.01 -0.17 -0.13 -0.08 -0.17 -0.11 -0.09 -0.10 
utt>    48                    112001  337    0    52 15  1 3 1.994375e-12 3.603020e+00 1.214218e+03
INFO: cmn.c(175): CMN: 11.19 -0.22  0.07 -0.34 -0.42  0.10 -0.25 -0.21  0.00 -0.21 -0.11  0.01 -0.10 
utt>    49                    112002  316    0    44 16  1 3 1.584660e-12 3.682704e+00 1.163734e+03
INFO: cmn.c(175): CMN: 11.95 -0.31  0.00 -0.18 -0.10  0.00 -0.36 -0.03 -0.02 -0.26  0.08 -0.14 -0.13 
utt>    50                    112003  366    0    56 15  1 2 2.418596e-12 5.038486e+00 1.844086e+03
INFO: cmn.c(175): CMN: 11.90 -0.07 -0.02 -0.37 -0.11 -0.04 -0.32 -0.11 -0.08 -0.14 -0.02 -0.15 -0.18 
utt>    51                    112004  499    0    68 17  1 2 2.231342e-12 2.544710e+00 1.269810e+03
INFO: cmn.c(175): CMN: 14.21  0.29 -0.87  0.61 -1.07  0.38 -0.31 -0.34 -0.19 -0.31  0.05 -0.39 -0.02 
utt>    52                    112001  200    0    52 21  2 5 4.560073e-12 -1.059648e+00 -2.119295e+02
INFO: cmn.c(175): CMN: 14.12 -0.03 -0.58  0.46 -1.10  0.32 -0.29 -0.37 -0.09 -0.30 -0.10 -0.17 -0.09 
utt>    53                    112002  166    0    44 20  2 5 7.418366e-12 1.333307e+00 2.213290e+02
INFO: cmn.c(175): CMN: 14.31  0.17 -1.11  0.93 -0.66  0.22 -0.50 -0.37 -0.18 -0.51  0.20 -0.59  0.01 
utt>    54                    112003  218    0    56 18  2 3 2.046611e-12 2.923522e+00 6.373278e+02
INFO: cmn.c(175): CMN: 14.42  0.32 -0.98  0.77 -0.77  0.31 -0.43 -0.33 -0.26 -0.29  0.19 -0.52 -0.08 
utt>    55                    112004  299    0    68 19  1 3 3.135372e-12 3.412838e+00 1.020439e+03
INFO: cmn.c(175): CMN: 14.67 -0.54 -0.59 -0.79 -0.70  0.22 -0.19 -0.00 -0.33  0.09 -0.06 -0.08 -0.21 
utt>    56                    112001  456    0    52 20  1 2 1.889291e-12 5.855229e+00 2.669984e+03
INFO: cmn.c(175): CMN: 14.86 -0.81 -0.80 -0.84 -0.50  0.23 -0.43  0.05 -0.38  0.17  0.01 -0.12 -0.25 
utt>    57                    112002  396    0    44 14  1 1 2.446477e-13 5.890191e+00 2.332516e+03
INFO: cmn.c(175): CMN: 11.29 -0.05 -0.63 -0.52 -0.42  0.05 -0.30 -0.10 -0.23  0.13 -0.07 -0.15 -0.22 
utt>    58                    112003 1245    0    56 10  1 1 5.059064e-13 4.657937e+00 5.799132e+03
INFO: cmn.c(175): CMN: 12.94  0.08 -0.73 -0.52 -0.43 -0.05 -0.03 -0.16 -0.30  0.11  0.04 -0.09 -0.36 
utt>    59                    112004  704    0    68 21  1 2 1.800647e-12 4.598657e+00 3.237455e+03
INFO: cmn.c(175): CMN: 13.25  0.62 -0.93  0.05 -0.64 -0.10 -0.16 -0.29 -0.34 -0.17 -0.22 -0.13 -0.30 
utt>    60                    112001  320    0    52 22  1 3 2.445211e-12 6.092425e+00 1.949576e+03
INFO: cmn.c(175): CMN: 13.45  0.08 -0.72 -0.04 -0.75 -0.11 -0.19 -0.30 -0.23 -0.19 -0.25 -0.16 -0.15 
utt>    61                    112002  265    0    44 18  1 3 1.925927e-12 7.844620e+00 2.078824e+03
INFO: cmn.c(175): CMN: 13.88  0.19 -0.90  0.27 -0.39 -0.03 -0.31 -0.48 -0.22 -0.25 -0.19 -0.10 -0.43 
utt>    62                    112003  336    0    56 16  1 2 2.748275e-12 1.064850e+01 3.577896e+03
INFO: cmn.c(175): CMN: 13.34  0.34 -0.90  0.28 -0.48 -0.10 -0.16 -0.42 -0.29 -0.27 -0.06 -0.03 -0.44 
utt>    63                    112004  472    0    68 21  1 2 2.130060e-12 9.650243e+00 4.554914e+03
INFO: cmn.c(175): CMN: 11.44  1.06 -0.10 -0.43 -0.44 -0.35 -0.17 -0.25 -0.38 -0.12 -0.11 -0.09 -0.14 
utt>    64                    112001  469    0    52 19  1 2 2.108589e-12 2.888760e+00 1.354828e+03
INFO: cmn.c(175): CMN: 11.36  0.78 -0.12 -0.50 -0.51 -0.38 -0.19 -0.18 -0.31 -0.13 -0.08 -0.02 -0.11 
utt>    65                    112002  433    0    44 16  1 2 2.689953e-12 5.181756e+00 2.243700e+03
INFO: cmn.c(175): CMN: 11.56  0.81 -0.20 -0.42 -0.21 -0.34 -0.40 -0.28 -0.23  0.11 -0.01 -0.10 -0.04 
utt>    66                    112003  516    0    56 18  1 2 7.906441e-13 4.054479e+00 2.092111e+03
INFO: cmn.c(175): CMN: 11.66  0.98 -0.17 -0.33 -0.27 -0.34 -0.40 -0.38 -0.33 -0.02  0.02 -0.10 -0.20 
utt>    67                    112004  657    0    68 22  1 2 1.560115e-12 6.465026e+00 4.247522e+03
INFO: cmn.c(175): CMN: 11.99  0.25 -0.19  0.10 -0.61 -0.10 -0.23 -0.24 -0.31 -0.15 -0.14 -0.30 -0.11 
utt>    68                    112001  352    0    52 13  1 2 1.604699e-12 3.345764e+00 1.177709e+03
INFO: cmn.c(175): CMN: 12.41  0.22 -0.15 -0.12 -0.80 -0.06 -0.27 -0.26 -0.22 -0.15 -0.16 -0.30 -0.07 
utt>    69                    112002  286    0    44 16  1 3 1.375296e-12 3.291260e+00 9.413005e+02
INFO: cmn.c(175): CMN: 12.80  0.16 -0.27  0.26 -0.39 -0.10 -0.51 -0.30 -0.39  0.01 -0.19 -0.37 -0.04 
utt>    70                    112003  365    0    56 12  1 2 2.786872e-12 6.741481e+00 2.460641e+03
INFO: cmn.c(175): CMN: 12.71  0.33 -0.34  0.13 -0.46 -0.06 -0.36 -0.30 -0.42  0.07 -0.12 -0.44 -0.14 
utt>    71                    112004  472    0    68 16  1 2 2.792507e-12 5.492923e+00 2.592660e+03
INFO: cmn.c(175): CMN: 13.46  0.60 -0.60 -0.11 -0.81 -0.14 -0.25 -0.19 -0.16 -0.09  0.13 -0.05 -0.25 
utt>    72                    112001  299    0    52 18  1 3 2.715931e-12 4.075352e-01 1.218530e+02
INFO: cmn.c(175): CMN: 13.36  0.60 -0.56 -0.29 -0.81 -0.05 -0.23 -0.23 -0.20 -0.10  0.12 -0.01 -0.22 
utt>    73                    112002  255    0    44 21  2 3 4.085887e-12 2.092108e+00 5.334875e+02
INFO: cmn.c(175): CMN: 13.50  0.73 -0.82  0.41 -0.49 -0.13 -0.35 -0.49 -0.31 -0.21 -0.06 -0.27 -0.20 
utt>    74                    112003  305    0    56 17  1 3 2.889569e-12 5.318608e+00 1.622176e+03
INFO: cmn.c(175): CMN: 13.21  0.66 -0.76  0.31 -0.63 -0.14 -0.20 -0.49 -0.30 -0.08  0.02 -0.18 -0.28 
utt>    75                    112004  422    0    68 19  1 3 2.503664e-12 1.458541e+00 6.155045e+02
INFO: cmn.c(175): CMN: 13.78  0.66 -0.54 -0.23 -0.46 -0.21 -0.22 -0.33 -0.16 -0.11 -0.09 -0.08 -0.32 
utt>    76                    112001  247    0    52 20  1 3 2.588905e-12 9.612093e+00 2.374187e+03
INFO: cmn.c(175): CMN: 13.84  0.53 -0.45 -0.40 -0.61 -0.13 -0.20 -0.32 -0.13 -0.17 -0.11  0.01 -0.28 
utt>    77                    112002  203    0    44 20  2 4 3.035332e-12 1.006203e+01 2.042593e+03
INFO: cmn.c(175): CMN: 13.85  0.56 -0.60 -0.01 -0.20 -0.30 -0.42 -0.31 -0.21  0.03 -0.14 -0.18 -0.31 
utt>    78                    112003  276    0    56 15  1 3 7.441084e-13 9.897185e+00 2.731623e+03
INFO: cmn.c(175): CMN: 13.74  0.55 -0.61 -0.14 -0.29 -0.31 -0.33 -0.28 -0.19  0.02 -0.10 -0.18 -0.38 
utt>    79                    112004  393    0    68 19  1 3 2.099340e-12 1.000976e+01 3.933837e+03
INFO: cmn.c(175): CMN: 12.64  0.69  0.04 -0.13 -0.42 -0.18 -0.41 -0.18 -0.30 -0.27 -0.07 -0.15 -0.22 
utt>    80                    112001  213    0    52 21  2 4 2.940762e-12 8.944237e+00 1.905123e+03
INFO: cmn.c(175): CMN: 12.55  0.41  0.20 -0.28 -0.53 -0.19 -0.39 -0.17 -0.22 -0.23 -0.08 -0.14 -0.20 
utt>    81                    112002  208    0    44 21  1 3 3.056322e-12 7.512350e+00 1.562569e+03
INFO: cmn.c(175): CMN: 12.95  0.55  0.08 -0.14 -0.25 -0.25 -0.55 -0.15 -0.37 -0.26 -0.08 -0.10 -0.36 
utt>    82                    112003  250    0    56 19  1 3 1.315987e-12 8.246338e+00 2.061585e+03
INFO: cmn.c(175): CMN: 12.75  0.51 -0.02 -0.09 -0.30 -0.28 -0.52 -0.12 -0.36 -0.25 -0.04 -0.10 -0.37 
utt>    83                    112004  375    0    68 27  1 3 3.070623e-12 9.276104e+00 3.478539e+03
INFO: cmn.c(175): CMN: 13.23  0.59 -0.88 -0.12 -0.85 -0.28 -0.44 -0.34 -0.21 -0.24 -0.09 -0.15 -0.22 
utt>    84                    112001  208    0    52 25  2 4 4.718185e-12 5.235424e+00 1.088968e+03
INFO: cmn.c(175): CMN: 13.06  0.36 -0.71 -0.12 -0.87 -0.21 -0.46 -0.34 -0.15 -0.25 -0.16 -0.16 -0.20 
utt>    85                    112002  179    0    44 20  2 4 4.700287e-12 4.682295e+00 8.381309e+02
INFO: cmn.c(175): CMN: 13.57  0.35 -1.02  0.23 -0.49 -0.40 -0.52 -0.40 -0.25 -0.23 -0.04 -0.26 -0.32 
utt>    86                    112003  229    0    56 16  2 3 3.191760e-12 6.614429e+00 1.514704e+03
INFO: cmn.c(175): CMN: 13.12  0.52 -1.00 -0.02 -0.63 -0.29 -0.48 -0.36 -0.25 -0.19  0.01 -0.22 -0.38 
utt>    87                    112004  333    0    68 24  2 3 3.316622e-12 6.440305e+00 2.144621e+03
INFO: cmn.c(175): CMN: 13.05  0.38 -0.28  0.28 -0.72 -0.14 -0.13 -0.35 -0.13 -0.13 -0.15 -0.21 -0.17 
utt>    88                    112001  297    0    52 15  1 2 2.080075e-12 6.741075e+00 2.002099e+03
INFO: cmn.c(175): CMN: 13.22  0.44 -0.19 -0.06 -0.91 -0.03 -0.19 -0.45 -0.02 -0.12 -0.21 -0.16 -0.17 
utt>    89                    112002  244    0    44 19  1 2 2.476421e-12 7.610237e+00 1.856898e+03
INFO: cmn.c(175): CMN: 13.37  0.38 -0.38  0.47 -0.52 -0.18 -0.36 -0.49 -0.05 -0.13 -0.17 -0.33 -0.02 
utt>    90                    112003  328    0    56 15  1 2 2.782274e-12 6.791968e+00 2.227766e+03
INFO: cmn.c(175): CMN: 13.33  0.43 -0.41  0.37 -0.52 -0.19 -0.38 -0.42 -0.08 -0.08 -0.15 -0.24 -0.09 
utt>    91                    112004  406    0    68 20  1 3 3.072749e-12 7.265302e+00 2.949712e+03
overall> stats 37977 (-0) 4.559808e+00 1.731678e+05

INFO: s3mixw_io.c(232): Wrote /home/za-softcodes/Desktop/FYP/112ArabicSphinxTraining/bwaccumdir/112Arabic_buff_1/mixw_counts [198x1x1 array]
INFO: s3tmat_io.c(174): Wrote /home/za-softcodes/Desktop/FYP/112ArabicSphinxTraining/bwaccumdir/112Arabic_buff_1/tmat_counts [25x3x4 array]
INFO: s3gau_io.c(478): Wrote /home/za-softcodes/Desktop/FYP/112ArabicSphinxTraining/bwaccumdir/112Arabic_buff_1/gauden_counts with means with vars (2pass) [198x1x1 vector arrays]
INFO: main.c(1014): Counts saved to /home/za-softcodes/Desktop/FYP/112ArabicSphinxTraining/bwaccumdir/112Arabic_buff_1
Tue Apr 15 08:40:58 2014
