        INFO: main.c(229): Compiled on Apr 11 2014 at 10:45:13
INFO: cmd_ln.c(691): Parsing command line:
/usr/local/libexec/sphinxtrain/bw \
	-moddeffn /home/za-softcodes/Desktop/FYP/quranDataForSphinxTrain/model_architecture/quranData.200.mdef \
	-ts2cbfn .cont. \
	-mixwfn /home/za-softcodes/Desktop/FYP/quranDataForSphinxTrain/model_parameters/quranData.cd_cont_200/mixture_weights \
	-mwfloor 1e-05 \
	-tpfloor 1e-05 \
	-tmatfn /home/za-softcodes/Desktop/FYP/quranDataForSphinxTrain/model_parameters/quranData.cd_cont_200/transition_matrices \
	-meanfn /home/za-softcodes/Desktop/FYP/quranDataForSphinxTrain/model_parameters/quranData.cd_cont_200/means \
	-varfn /home/za-softcodes/Desktop/FYP/quranDataForSphinxTrain/model_parameters/quranData.cd_cont_200/variances \
	-dictfn /home/za-softcodes/Desktop/FYP/quranDataForSphinxTrain/etc/quranData.dic \
	-fdictfn /home/za-softcodes/Desktop/FYP/quranDataForSphinxTrain/etc/quranData.filler \
	-ctlfn /home/za-softcodes/Desktop/FYP/quranDataForSphinxTrain/etc/quranData_train.fileids \
	-part 1 \
	-npart 1 \
	-cepdir /home/za-softcodes/Desktop/FYP/quranDataForSphinxTrain/feat \
	-cepext mfc \
	-lsnfn /home/za-softcodes/Desktop/FYP/quranDataForSphinxTrain/etc/quranData_train.transcription \
	-accumdir /home/za-softcodes/Desktop/FYP/quranDataForSphinxTrain/bwaccumdir/quranData_buff_1 \
	-varfloor 0.0001 \
	-topn 4 \
	-abeam 1e-90 \
	-bbeam 1e-10 \
	-agc none \
	-cmn current \
	-varnorm no \
	-meanreest yes \
	-varreest yes \
	-2passvar yes \
	-tmatreest yes \
	-fullvar no \
	-diagfull no \
	-feat 1s_c_d_dd \
	-ceplen 13 \
	-timing no 

Current configuration:
[NAME]			[DEFLT]		[VALUE]
-2passvar		no		yes
-abeam			1e-100		1.000000e-90
-accumdir				/home/za-softcodes/Desktop/FYP/quranDataForSphinxTrain/bwaccumdir/quranData_buff_1
-agc			none		none
-agcthresh		2.0		2.000000e+00
-bbeam			1e-100		1.000000e-10
-cb2mllrfn		.1cls.		.1cls.
-cepdir					/home/za-softcodes/Desktop/FYP/quranDataForSphinxTrain/feat
-cepext			mfc		mfc
-ceplen			13		13
-ckptintv				0
-cmn			current		current
-cmninit		8.0		8.0
-ctlfn					/home/za-softcodes/Desktop/FYP/quranDataForSphinxTrain/etc/quranData_train.fileids
-diagfull		no		no
-dictfn					/home/za-softcodes/Desktop/FYP/quranDataForSphinxTrain/etc/quranData.dic
-example		no		no
-fdictfn				/home/za-softcodes/Desktop/FYP/quranDataForSphinxTrain/etc/quranData.filler
-feat			1s_c_d_dd	1s_c_d_dd
-fullsuffixmatch	no		no
-fullvar		no		no
-help			no		no
-hmmdir					
-latdir					
-latext					
-lda					
-ldaaccum		no		no
-ldadim			0		0
-lsnfn					/home/za-softcodes/Desktop/FYP/quranDataForSphinxTrain/etc/quranData_train.transcription
-lw			11.5		1.150000e+01
-maxuttlen		0		0
-meanfn					/home/za-softcodes/Desktop/FYP/quranDataForSphinxTrain/model_parameters/quranData.cd_cont_200/means
-meanreest		yes		yes
-mixwfn					/home/za-softcodes/Desktop/FYP/quranDataForSphinxTrain/model_parameters/quranData.cd_cont_200/mixture_weights
-mixwreest		yes		yes
-mllrmat				
-mmie			no		no
-mmie_type		rand		rand
-moddeffn				/home/za-softcodes/Desktop/FYP/quranDataForSphinxTrain/model_architecture/quranData.200.mdef
-mwfloor		0.00001		1.000000e-05
-npart					1
-nskip					0
-outphsegdir				
-outputfullpath		no		no
-part					1
-pdumpdir				
-phsegdir				
-phsegext		phseg		phseg
-runlen			-1		-1
-sentdir				
-sentext		sent		sent
-spthresh		0.0		0.000000e+00
-svspec					
-timing			yes		no
-tmatfn					/home/za-softcodes/Desktop/FYP/quranDataForSphinxTrain/model_parameters/quranData.cd_cont_200/transition_matrices
-tmatreest		yes		yes
-topn			4		4
-tpfloor		0.0001		1.000000e-05
-ts2cbfn				.cont.
-varfloor		0.00001		1.000000e-04
-varfn					/home/za-softcodes/Desktop/FYP/quranDataForSphinxTrain/model_parameters/quranData.cd_cont_200/variances
-varnorm		no		no
-varreest		yes		yes
-viterbi		no		no

INFO: feat.c(713): Initializing feature stream to type: '1s_c_d_dd', ceplen=13, CMN='current', VARNORM='no', AGC='none'
INFO: cmn.c(142): mean[0]= 12.00, mean[1..12]= 0.0
INFO: main.c(318): Reading /home/za-softcodes/Desktop/FYP/quranDataForSphinxTrain/model_architecture/quranData.200.mdef
INFO: model_def_io.c(573): Model definition info:
INFO: model_def_io.c(574): 13272 total models defined (24 base, 13248 tri)
INFO: model_def_io.c(575): 53088 total states
INFO: model_def_io.c(576): 171 total tied states
INFO: model_def_io.c(577): 72 total tied CI states
INFO: model_def_io.c(578): 24 total tied transition matrices
INFO: model_def_io.c(579): 4 max state/model
INFO: model_def_io.c(580): 4 min state/model
INFO: s3mixw_io.c(116): Read /home/za-softcodes/Desktop/FYP/quranDataForSphinxTrain/model_parameters/quranData.cd_cont_200/mixture_weights [171x1x4 array]
INFO: s3tmat_io.c(115): Read /home/za-softcodes/Desktop/FYP/quranDataForSphinxTrain/model_parameters/quranData.cd_cont_200/transition_matrices [24x3x4 array]
INFO: mod_inv.c(300): inserting tprob floor 1.000000e-05 and renormalizing
INFO: s3gau_io.c(166): Read /home/za-softcodes/Desktop/FYP/quranDataForSphinxTrain/model_parameters/quranData.cd_cont_200/means [171x1x4 array]
INFO: s3gau_io.c(166): Read /home/za-softcodes/Desktop/FYP/quranDataForSphinxTrain/model_parameters/quranData.cd_cont_200/variances [171x1x4 array]
INFO: gauden.c(183): 171 total mgau
INFO: gauden.c(157): 1 feature streams (|0|=39 )
INFO: gauden.c(194): 4 total densities
INFO: gauden.c(97): min_var=1.000000e-04
INFO: gauden.c(172): compute 4 densities/frame
INFO: main.c(430): Will reestimate mixing weights.
INFO: main.c(432): Will reestimate means.
INFO: main.c(434): Will reestimate variances.
INFO: main.c(442): Will reestimate transition matrices
INFO: main.c(455): Reading main lexicon: /home/za-softcodes/Desktop/FYP/quranDataForSphinxTrain/etc/quranData.dic
INFO: lexicon.c(220): 23 entries added from /home/za-softcodes/Desktop/FYP/quranDataForSphinxTrain/etc/quranData.dic
INFO: main.c(465): Reading filler lexicon: /home/za-softcodes/Desktop/FYP/quranDataForSphinxTrain/etc/quranData.filler
INFO: lexicon.c(220): 3 entries added from /home/za-softcodes/Desktop/FYP/quranDataForSphinxTrain/etc/quranData.filler
INFO: corpus.c(1086): Will process all remaining utts starting at 0
INFO: main.c(665): Reestimation: Baum-Welch
INFO: cmn.c(175): CMN: 10.75  0.07 -0.45  0.34 -0.67 -0.05  0.08 -0.56 -0.23 -0.11 -0.05 -0.15 -0.11 
column defns
	<seq>
	<id>
	<n_frame_in>
	<n_frame_del>
	<n_state_shmm>
	<avg_states_alpha>
	<avg_states_beta>
	<avg_states_reest>
	<avg_posterior_prune>
	<frame_log_lik>
	<utt_log_lik>
	... timing info ... 
utt>     0                    112001  323    0    40 14  1 2 9.754429e-13 7.847034e+00 2.534592e+03
INFO: cmn.c(175): CMN: 10.64 -0.06 -0.44  0.22 -0.69  0.05  0.07 -0.53 -0.21 -0.15 -0.06 -0.13 -0.07 
utt>     1                    112002  291    0    32 11  1 2 8.710796e-13 7.562317e+00 2.200634e+03
INFO: cmn.c(175): CMN: 11.08 -0.07 -0.64  0.57 -0.43 -0.16 -0.02 -0.57 -0.11 -0.06  0.01 -0.15 -0.08 
utt>     2                    112003  352    0    44 12  1 2 9.105837e-13 8.657393e+00 3.047402e+03
INFO: cmn.c(175): CMN: 11.25 -0.05 -0.69  0.35 -0.39 -0.04  0.05 -0.54 -0.13 -0.00  0.02 -0.16 -0.09 
utt>     3                    112004  433    0    56 15  1 2 9.585573e-13 6.929037e+00 3.000273e+03
INFO: cmn.c(175): CMN: 12.01 -0.02 -0.31 -0.19 -0.74  0.08 -0.29 -0.16 -0.03 -0.02 -0.03 -0.01  0.08 
utt>     4                    112001  367    0    40 12  1 2 1.733816e-12 1.486850e+00 5.456738e+02
INFO: cmn.c(175): CMN: 11.20 -0.01 -0.25 -0.41 -0.73  0.19 -0.34 -0.13 -0.10  0.03 -0.05  0.11  0.07 
utt>     5                    112002  349    0    32 10  1 1 7.248562e-13 4.309999e+00 1.504190e+03
INFO: cmn.c(175): CMN: 11.74  0.06 -0.45  0.15 -0.51  0.07 -0.46 -0.13 -0.09  0.05  0.06 -0.10  0.17 
utt>     6                    112003  388    0    44 11  1 1 1.320921e-12 5.458067e+00 2.117730e+03
INFO: cmn.c(175): CMN: 11.18  0.25 -0.34  0.15 -0.60  0.10 -0.46 -0.20 -0.19 -0.02 -0.07 -0.17  0.03 
utt>     7                    112004  513    0    56 12  1 2 1.067959e-12 4.945596e+00 2.537091e+03
INFO: cmn.c(175): CMN:  9.26 -0.50 -0.95  0.06 -0.27  0.05  0.07 -0.27 -0.15 -0.22 -0.29 -0.01 -0.23 
utt>     8                    112001  767    0    40 11  1 1 4.531406e-13 4.595900e+00 3.525056e+03
INFO: cmn.c(175): CMN: 11.09 -0.60 -0.86 -0.28 -0.44  0.29  0.07 -0.36 -0.10 -0.20 -0.34 -0.03 -0.17 
utt>     9                    112002  547    0    32 11  1 1 6.011976e-13 5.069265e+00 2.772888e+03
INFO: cmn.c(175): CMN: 11.46 -0.38 -1.07  0.18 -0.42  0.02  0.18 -0.35 -0.06 -0.13 -0.32 -0.15 -0.10 
utt>    10                    112003  717    0    44 12  1 1 5.297696e-13 5.722722e+00 4.103192e+03
INFO: cmn.c(175): CMN: 11.32 -0.26 -0.99  0.14 -0.38  0.01  0.27 -0.44 -0.10 -0.16 -0.27 -0.23 -0.16 
utt>    11                    112004  890    0    56 14  1 1 6.801880e-13 2.662539e+00 2.369659e+03
INFO: cmn.c(175): CMN: 11.41  0.28 -0.29  0.12 -0.95 -0.14 -0.09 -0.44  0.15 -0.04 -0.14  0.07 -0.21 
utt>    12                    112001  294    0    40 16  1 2 1.936547e-12 7.904892e+00 2.324038e+03
INFO: cmn.c(175): CMN: 11.31  0.17 -0.29 -0.04 -1.03 -0.08 -0.03 -0.36  0.19 -0.03 -0.12  0.13 -0.21 
utt>    13                    112002  255    0    32 14  1 2 9.483835e-13 9.828439e+00 2.506252e+03
INFO: cmn.c(175): CMN: 11.54  0.08 -0.37  0.31 -0.92 -0.13 -0.26 -0.28  0.21 -0.13 -0.02  0.02 -0.25 
utt>    14                    112003  276    0    44 15  1 2 9.696797e-13 9.451199e+00 2.608531e+03
INFO: cmn.c(175): CMN: 11.11  0.46 -0.32  0.11 -0.88 -0.15 -0.20 -0.38  0.18 -0.05  0.02  0.05 -0.25 
utt>    15                    112004  456    0    56 17  1 2 1.733059e-12 9.151066e+00 4.172886e+03
INFO: cmn.c(175): CMN: 12.97  0.18 -0.20  0.04 -0.73  0.10 -0.36 -0.20 -0.13 -0.13 -0.12 -0.26 -0.07 
utt>    16                    112001  271    0    40 14  1 2 1.338710e-12 7.189512e+00 1.948358e+03
INFO: cmn.c(175): CMN: 13.07  0.11 -0.12 -0.14 -0.76  0.17 -0.40 -0.15 -0.16 -0.16 -0.13 -0.16 -0.08 
utt>    17                    112002  216    0    32 13  1 2 1.922255e-12 7.994173e+00 1.726741e+03
INFO: cmn.c(175): CMN: 13.80 -0.15 -0.34  0.41 -0.49 -0.12 -0.51 -0.07 -0.25 -0.06 -0.12 -0.28  0.11 
utt>    18                    112003  278    0    44 12  1 2 1.436884e-12 9.278093e+00 2.579310e+03
INFO: cmn.c(175): CMN: 13.24  0.17 -0.36  0.21 -0.52 -0.11 -0.49 -0.15 -0.19  0.02 -0.09 -0.42 -0.03 
utt>    19                    112004  383    0    56 16  1 2 1.705517e-12 9.421731e+00 3.608523e+03
INFO: cmn.c(175): CMN: 11.12  0.56 -0.35 -0.03 -0.69  0.05 -0.27 -0.54 -0.10 -0.22  0.18 -0.27  0.12 
utt>    20                    112001  307    0    40 14  1 2 1.726993e-12 3.938482e+00 1.209114e+03
INFO: cmn.c(175): CMN: 11.23  0.28 -0.10 -0.17 -0.94  0.17 -0.33 -0.47 -0.08 -0.27  0.20 -0.34  0.19 
utt>    21                    112002  263    0    32 11  1 2 2.112032e-12 5.629304e+00 1.480507e+03
INFO: cmn.c(175): CMN: 11.69  0.30 -0.37  0.31 -0.40 -0.03 -0.48 -0.58 -0.22 -0.30  0.24 -0.39  0.15 
utt>    22                    112003  307    0    44 12  1 2 1.955161e-12 8.203598e+00 2.518505e+03
INFO: cmn.c(175): CMN: 10.13  0.60 -0.27  0.14 -0.40  0.04 -0.45 -0.53 -0.26 -0.21  0.18 -0.41 -0.03 
utt>    23                    112004  495    0    56 14  1 2 2.641997e-12 8.228297e+00 4.073007e+03
INFO: cmn.c(175): CMN: 12.78  0.12 -0.51  0.07 -0.57  0.09 -0.03 -0.33 -0.10 -0.18  0.04 -0.29  0.07 
utt>    24                    112001  294    0    40 16  1 3 2.514514e-12 4.683269e+00 1.376881e+03
INFO: cmn.c(175): CMN: 13.15 -0.23 -0.21 -0.28 -0.31 -0.03 -0.28 -0.27 -0.10  0.14 -0.01 -0.27  0.10 
utt>    25                    112002  208    0    32 12  1 2 1.707889e-12 7.627443e+00 1.586508e+03
INFO: cmn.c(175): CMN: 13.83  0.22 -0.53  0.25 -0.33 -0.17 -0.26 -0.34 -0.07 -0.18  0.10 -0.34  0.23 
utt>    26                    112003  247    0    44 14  1 2 1.754623e-12 4.086580e+00 1.009385e+03
INFO: cmn.c(175): CMN: 12.90  0.46 -0.48  0.07 -0.31 -0.10 -0.25 -0.36 -0.09 -0.10  0.12 -0.35  0.13 
utt>    27                    112004  338    0    56 18  1 3 1.837560e-12 5.122688e+00 1.731468e+03
INFO: cmn.c(175): CMN:  7.27  0.20 -0.24  0.12 -0.59 -0.11  0.05 -0.34  0.04 -0.26  0.01 -0.14 -0.26 
utt>    28                    112001  354    0    40 13  1 2 1.877174e-12 6.012472e+00 2.128415e+03
INFO: cmn.c(175): CMN: 12.48  0.13 -0.18 -0.19 -0.71 -0.09 -0.00 -0.34 -0.01 -0.36 -0.04 -0.05 -0.30 
utt>    29                    112002  216    0    32 15  1 2 1.919427e-12 5.044086e-01 1.089523e+02
INFO: cmn.c(175): CMN: 12.21  0.04 -0.33  0.45 -0.37 -0.24 -0.17 -0.30 -0.06 -0.16 -0.06 -0.22 -0.18 
utt>    30                    112003  315    0    44 14  1 2 1.034819e-12 5.438262e+00 1.713053e+03
INFO: cmn.c(175): CMN: 11.51  0.40 -0.31  0.37 -0.42 -0.21 -0.05 -0.34 -0.08 -0.10  0.04 -0.15 -0.13 
utt>    31                    112004  399    0    56 19  1 3 2.566065e-12 4.066325e+00 1.622464e+03
INFO: cmn.c(175): CMN: 11.23  0.85 -0.17 -0.54  0.21 -0.52 -0.15 -0.25 -0.51  0.05 -0.22 -0.22 -0.32 
utt>    32                    112001  352    0    40 12  1 2 1.587255e-12 -5.499646e+00 -1.935875e+03
INFO: cmn.c(175): CMN: 11.03  0.59 -0.11 -0.47 -0.08 -0.29 -0.15 -0.40 -0.32  0.03 -0.24 -0.16 -0.33 
utt>    33                    112002  323    0    32 9  1 1 1.528139e-12 -3.629393e+00 -1.172294e+03
INFO: cmn.c(175): CMN: 12.04  0.52 -0.29 -0.38  0.41 -0.47 -0.45 -0.15 -0.46 -0.03 -0.20 -0.34 -0.29 
utt>    34                    112003  362    0    44 10  1 2 1.893238e-12 -2.741943e+00 -9.925833e+02
INFO: cmn.c(175): CMN: 11.74  0.87 -0.32 -0.47  0.43 -0.55 -0.26 -0.28 -0.45  0.09 -0.20 -0.29 -0.36 
utt>    35                    112004  459    0    56 13  1 2 2.130186e-12 -4.687587e+00 -2.151602e+03
INFO: cmn.c(175): CMN:  9.76  0.31 -0.86  0.31 -0.75 -0.18  0.17 -0.18 -0.10  0.01 -0.13  0.03 -0.08 
utt>    36                    112001  589    0    40 11  1 1 1.082070e-12 6.911992e+00 4.071163e+03
INFO: cmn.c(175): CMN:  9.90  0.19 -0.88  0.05 -0.82 -0.06  0.19 -0.19 -0.10 -0.00 -0.29  0.03 -0.08 
utt>    37                    112002  511    0    32 11  1 1 7.674032e-13 8.117146e+00 4.147862e+03
INFO: cmn.c(175): CMN: 10.49  0.28 -1.01  0.50 -0.49 -0.31  0.03 -0.37 -0.06  0.04  0.05 -0.00 -0.14 
utt>    38                    112003  600    0    44 11  1 1 8.243816e-13 9.438406e+00 5.663043e+03
INFO: cmn.c(175): CMN:  9.36  0.55 -0.76  0.29 -0.44 -0.26  0.02 -0.46 -0.34  0.02  0.05 -0.05 -0.15 
utt>    39                    112004  819    0    56 12  1 1 8.973302e-13 9.373273e+00 7.676710e+03
INFO: cmn.c(175): CMN:  9.20 -0.12 -0.47 -0.02 -0.41 -0.20  0.30 -0.15 -0.05 -0.02 -0.28  0.04 -0.16 
utt>    40                    112001  913    0    40 10  1 1 7.028512e-13 8.900134e+00 8.125822e+03
INFO: cmn.c(175): CMN:  8.86 -0.24 -0.42 -0.11 -0.40 -0.12  0.30 -0.19  0.01 -0.01 -0.26  0.07 -0.17 
utt>    41                    112002  704    0    32 7  1 1 1.383877e-13 5.216414e+00 3.672355e+03
INFO: cmn.c(175): CMN:  9.97 -0.11 -0.58  0.14 -0.23 -0.34  0.31 -0.27 -0.01  0.07 -0.26  0.03 -0.23 
utt>    42                    112003  817    0    44 9  1 1 1.380997e-13 6.759926e+00 5.522860e+03
INFO: cmn.c(175): CMN: 10.37 -0.16 -0.57  0.15 -0.35 -0.26  0.23 -0.28 -0.14  0.03 -0.23 -0.09 -0.23 
utt>    43                    112004  955    0    56 11  1 1 5.153968e-13 6.114834e+00 5.839667e+03
INFO: cmn.c(175): CMN:  8.88 -0.19 -0.51  0.06 -0.55 -0.27  0.08 -0.38 -0.10  0.00 -0.06  0.06  0.01 
utt>    44                    112001  602    0    40 9  1 1 5.173274e-13 8.569819e+00 5.159031e+03
INFO: cmn.c(175): CMN:  8.06 -0.34 -0.41  0.02 -0.50 -0.19  0.03 -0.32 -0.07  0.01 -0.08  0.02  0.06 
utt>    45                    112002  589    0    32 7  1 1 4.285531e-13 1.122217e+01 6.609861e+03
INFO: cmn.c(175): CMN:  8.53 -0.17 -0.68  0.29 -0.23 -0.29  0.02 -0.50  0.01 -0.03 -0.01  0.02 -0.07 
utt>    46                    112003  613    0    44 8  1 1 4.615594e-13 8.215171e+00 5.035900e+03
INFO: cmn.c(175): CMN:  5.41  0.02 -0.50  0.24 -0.23 -0.17  0.05 -0.38 -0.04  0.03  0.01  0.02 -0.05 
utt>    47                    112004  845    0    56 8  1 1 2.485517e-13 9.658112e+00 8.161105e+03
INFO: cmn.c(175): CMN: 11.45 -0.01 -0.04 -0.33 -0.36  0.01 -0.17 -0.13 -0.08 -0.17 -0.11 -0.09 -0.10 
utt>    48                    112001  337    0    40 13  1 2 1.434221e-12 5.151392e+00 1.736019e+03
INFO: cmn.c(175): CMN: 11.19 -0.22  0.07 -0.34 -0.42  0.10 -0.25 -0.21  0.00 -0.21 -0.11  0.01 -0.10 
utt>    49                    112002  316    0    32 11  1 2 1.631208e-12 5.761415e+00 1.820607e+03
INFO: cmn.c(175): CMN: 11.95 -0.31  0.00 -0.18 -0.10  0.00 -0.36 -0.03 -0.02 -0.26  0.08 -0.14 -0.13 
utt>    50                    112003  366    0    44 12  1 2 9.478016e-13 6.682265e+00 2.445709e+03
INFO: cmn.c(175): CMN: 11.90 -0.07 -0.02 -0.37 -0.11 -0.04 -0.32 -0.11 -0.08 -0.14 -0.02 -0.15 -0.18 
utt>    51                    112004  499    0    56 14  1 2 1.544594e-12 4.170448e+00 2.081053e+03
INFO: cmn.c(175): CMN: 14.21  0.29 -0.87  0.61 -1.07  0.38 -0.31 -0.34 -0.19 -0.31  0.05 -0.39 -0.02 
utt>    52                    112001  200    0    40 16  1 3 3.655250e-12 7.929230e-01 1.585846e+02
INFO: cmn.c(175): CMN: 14.12 -0.03 -0.58  0.46 -1.10  0.32 -0.29 -0.37 -0.09 -0.30 -0.10 -0.17 -0.09 
utt>    53                    112002  166    0    32 14  1 2 2.760803e-12 4.080467e+00 6.773574e+02
INFO: cmn.c(175): CMN: 14.31  0.17 -1.11  0.93 -0.66  0.22 -0.50 -0.37 -0.18 -0.51  0.20 -0.59  0.01 
utt>    54                    112003  218    0    44 14  1 3 2.587676e-12 4.048273e+00 8.825236e+02
INFO: cmn.c(175): CMN: 14.42  0.32 -0.98  0.77 -0.77  0.31 -0.43 -0.33 -0.26 -0.29  0.19 -0.52 -0.08 
utt>    55                    112004  299    0    56 17  1 3 1.698037e-12 3.594965e+00 1.074894e+03
INFO: cmn.c(175): CMN: 14.67 -0.54 -0.59 -0.79 -0.70  0.22 -0.19 -0.00 -0.33  0.09 -0.06 -0.08 -0.21 
utt>    56                    112001  456    0    40 17  1 2 1.981130e-12 7.674290e+00 3.499476e+03
INFO: cmn.c(175): CMN: 14.86 -0.81 -0.80 -0.84 -0.50  0.23 -0.43  0.05 -0.38  0.17  0.01 -0.12 -0.25 
utt>    57                    112002  396    0    32 15  1 1 1.296998e-12 9.254407e+00 3.664745e+03
INFO: cmn.c(175): CMN: 11.29 -0.05 -0.63 -0.52 -0.42  0.05 -0.30 -0.10 -0.23  0.13 -0.07 -0.15 -0.22 
utt>    58                    112003 1245    0    44 7  1 1 3.807424e-13 6.989606e+00 8.702060e+03
INFO: cmn.c(175): CMN: 12.94  0.08 -0.73 -0.52 -0.43 -0.05 -0.03 -0.16 -0.30  0.11  0.04 -0.09 -0.36 
utt>    59                    112004  704    0    56 16  1 1 7.600655e-13 8.674234e+00 6.106661e+03
INFO: cmn.c(175): CMN: 13.25  0.62 -0.93  0.05 -0.64 -0.10 -0.16 -0.29 -0.34 -0.17 -0.22 -0.13 -0.30 
utt>    60                    112001  320    0    40 15  1 2 1.879524e-12 8.055160e+00 2.577651e+03
INFO: cmn.c(175): CMN: 13.45  0.08 -0.72 -0.04 -0.75 -0.11 -0.19 -0.30 -0.23 -0.19 -0.25 -0.16 -0.15 
utt>    61                    112002  265    0    32 13  1 2 1.381833e-12 1.049089e+01 2.780086e+03
INFO: cmn.c(175): CMN: 13.88  0.19 -0.90  0.27 -0.39 -0.03 -0.31 -0.48 -0.22 -0.25 -0.19 -0.10 -0.43 
utt>    62                    112003  336    0    44 13  1 2 1.526035e-12 1.151838e+01 3.870177e+03
INFO: cmn.c(175): CMN: 13.34  0.34 -0.90  0.28 -0.48 -0.10 -0.16 -0.42 -0.29 -0.27 -0.06 -0.03 -0.44 
utt>    63                    112004  472    0    56 16  1 2 1.500407e-12 1.180676e+01 5.572791e+03
INFO: cmn.c(175): CMN: 11.44  1.06 -0.10 -0.43 -0.44 -0.35 -0.17 -0.25 -0.38 -0.12 -0.11 -0.09 -0.14 
utt>    64                    112001  469    0    40 15  1 2 6.272197e-13 4.722508e+00 2.214856e+03
INFO: cmn.c(175): CMN: 11.36  0.78 -0.12 -0.50 -0.51 -0.38 -0.19 -0.18 -0.31 -0.13 -0.08 -0.02 -0.11 
utt>    65                    112002  433    0    32 13  1 1 1.183529e-12 5.806383e+00 2.514164e+03
INFO: cmn.c(175): CMN: 11.56  0.81 -0.20 -0.42 -0.21 -0.34 -0.40 -0.28 -0.23  0.11 -0.01 -0.10 -0.04 
utt>    66                    112003  516    0    44 14  1 1 1.006132e-12 5.357584e+00 2.764513e+03
INFO: cmn.c(175): CMN: 11.66  0.98 -0.17 -0.33 -0.27 -0.34 -0.40 -0.38 -0.33 -0.02  0.02 -0.10 -0.20 
utt>    67                    112004  657    0    56 18  1 2 1.666029e-12 7.684545e+00 5.048746e+03
INFO: cmn.c(175): CMN: 11.99  0.25 -0.19  0.10 -0.61 -0.10 -0.23 -0.24 -0.31 -0.15 -0.14 -0.30 -0.11 
utt>    68                    112001  352    0    40 12  1 2 1.132730e-12 5.008551e+00 1.763010e+03
INFO: cmn.c(175): CMN: 12.41  0.22 -0.15 -0.12 -0.80 -0.06 -0.27 -0.26 -0.22 -0.15 -0.16 -0.30 -0.07 
utt>    69                    112002  286    0    32 12  1 2 1.448168e-12 5.851784e+00 1.673610e+03
INFO: cmn.c(175): CMN: 12.80  0.16 -0.27  0.26 -0.39 -0.10 -0.51 -0.30 -0.39  0.01 -0.19 -0.37 -0.04 
utt>    70                    112003  365    0    44 10  1 2 1.408907e-12 7.890719e+00 2.880113e+03
INFO: cmn.c(175): CMN: 12.71  0.33 -0.34  0.13 -0.46 -0.06 -0.36 -0.30 -0.42  0.07 -0.12 -0.44 -0.14 
utt>    71                    112004  472    0    56 14  1 2 1.205602e-12 7.022460e+00 3.314601e+03
INFO: cmn.c(175): CMN: 13.46  0.60 -0.60 -0.11 -0.81 -0.14 -0.25 -0.19 -0.16 -0.09  0.13 -0.05 -0.25 
utt>    72                    112001  299    0    40 16  1 2 1.415629e-12 1.406988e+00 4.206895e+02
INFO: cmn.c(175): CMN: 13.36  0.60 -0.56 -0.29 -0.81 -0.05 -0.23 -0.23 -0.20 -0.10  0.12 -0.01 -0.22 
utt>    73                    112002  255    0    32 15  1 2 1.770352e-12 3.982977e+00 1.015659e+03
INFO: cmn.c(175): CMN: 13.50  0.73 -0.82  0.41 -0.49 -0.13 -0.35 -0.49 -0.31 -0.21 -0.06 -0.27 -0.20 
utt>    74                    112003  305    0    44 14  1 2 1.751980e-12 7.089127e+00 2.162184e+03
INFO: cmn.c(175): CMN: 13.21  0.66 -0.76  0.31 -0.63 -0.14 -0.20 -0.49 -0.30 -0.08  0.02 -0.18 -0.28 
utt>    75                    112004  422    0    56 15  1 3 2.282042e-12 3.197676e+00 1.349419e+03
INFO: cmn.c(175): CMN: 13.78  0.66 -0.54 -0.23 -0.46 -0.21 -0.22 -0.33 -0.16 -0.11 -0.09 -0.08 -0.32 
utt>    76                    112001  247    0    40 16  1 2 1.652349e-12 1.140603e+01 2.817290e+03
INFO: cmn.c(175): CMN: 13.84  0.53 -0.45 -0.40 -0.61 -0.13 -0.20 -0.32 -0.13 -0.17 -0.11  0.01 -0.28 
utt>    77                    112002  203    0    32 13  1 2 1.806682e-12 1.428223e+01 2.899293e+03
INFO: cmn.c(175): CMN: 13.85  0.56 -0.60 -0.01 -0.20 -0.30 -0.42 -0.31 -0.21  0.03 -0.14 -0.18 -0.31 
utt>    78                    112003  276    0    44 13  1 2 1.399041e-12 1.107611e+01 3.057006e+03
INFO: cmn.c(175): CMN: 13.74  0.55 -0.61 -0.14 -0.29 -0.31 -0.33 -0.28 -0.19  0.02 -0.10 -0.18 -0.38 
utt>    79                    112004  393    0    56 17  1 2 2.221968e-12 1.107904e+01 4.354065e+03
INFO: cmn.c(175): CMN: 12.64  0.69  0.04 -0.13 -0.42 -0.18 -0.41 -0.18 -0.30 -0.27 -0.07 -0.15 -0.22 
utt>    80                    112001  213    0    40 16  1 3 1.662538e-12 1.091767e+01 2.325463e+03
INFO: cmn.c(175): CMN: 12.55  0.41  0.20 -0.28 -0.53 -0.19 -0.39 -0.17 -0.22 -0.23 -0.08 -0.14 -0.20 
utt>    81                    112002  208    0    32 16  1 2 1.431086e-12 1.040456e+01 2.164148e+03
INFO: cmn.c(175): CMN: 12.95  0.55  0.08 -0.14 -0.25 -0.25 -0.55 -0.15 -0.37 -0.26 -0.08 -0.10 -0.36 
utt>    82                    112003  250    0    44 15  1 2 2.155993e-12 9.753753e+00 2.438438e+03
INFO: cmn.c(175): CMN: 12.75  0.51 -0.02 -0.09 -0.30 -0.28 -0.52 -0.12 -0.36 -0.25 -0.04 -0.10 -0.37 
utt>    83                    112004  375    0    56 22  1 2 1.969007e-12 1.067597e+01 4.003489e+03
INFO: cmn.c(175): CMN: 13.23  0.59 -0.88 -0.12 -0.85 -0.28 -0.44 -0.34 -0.21 -0.24 -0.09 -0.15 -0.22 
utt>    84                    112001  208    0    40 18  1 3 2.651724e-12 6.992781e+00 1.454499e+03
INFO: cmn.c(175): CMN: 13.06  0.36 -0.71 -0.12 -0.87 -0.21 -0.46 -0.34 -0.15 -0.25 -0.16 -0.16 -0.20 
utt>    85                    112002  179    0    32 14  1 2 1.568082e-12 6.535994e+00 1.169943e+03
INFO: cmn.c(175): CMN: 13.57  0.35 -1.02  0.23 -0.49 -0.40 -0.52 -0.40 -0.25 -0.23 -0.04 -0.26 -0.32 
utt>    86                    112003  229    0    44 14  1 2 1.631636e-12 7.949504e+00 1.820436e+03
INFO: cmn.c(175): CMN: 13.12  0.52 -1.00 -0.02 -0.63 -0.29 -0.48 -0.36 -0.25 -0.19  0.01 -0.22 -0.38 
utt>    87                    112004  333    0    56 18  1 3 2.659496e-12 7.698296e+00 2.563532e+03
INFO: cmn.c(175): CMN: 13.05  0.38 -0.28  0.28 -0.72 -0.14 -0.13 -0.35 -0.13 -0.13 -0.15 -0.21 -0.17 
utt>    88                    112001  297    0    40 13  1 2 1.253411e-12 7.826954e+00 2.324605e+03
INFO: cmn.c(175): CMN: 13.22  0.44 -0.19 -0.06 -0.91 -0.03 -0.19 -0.45 -0.02 -0.12 -0.21 -0.16 -0.17 
utt>    89                    112002  244    0    32 13  1 2 1.203528e-12 1.017789e+01 2.483404e+03
INFO: cmn.c(175): CMN: 13.37  0.38 -0.38  0.47 -0.52 -0.18 -0.36 -0.49 -0.05 -0.13 -0.17 -0.33 -0.02 
utt>    90                    112003  328    0    44 12  1 2 1.697341e-12 8.370375e+00 2.745483e+03
INFO: cmn.c(175): CMN: 13.33  0.43 -0.41  0.37 -0.52 -0.19 -0.38 -0.42 -0.08 -0.08 -0.15 -0.24 -0.09 
utt>    91                    112004  406    0    56 17  1 2 1.945826e-12 8.799831e+00 3.572731e+03
overall> stats 37977 (-0) 6.653767e+00 2.526901e+05

INFO: s3mixw_io.c(232): Wrote /home/za-softcodes/Desktop/FYP/quranDataForSphinxTrain/bwaccumdir/quranData_buff_1/mixw_counts [171x1x4 array]
INFO: s3tmat_io.c(174): Wrote /home/za-softcodes/Desktop/FYP/quranDataForSphinxTrain/bwaccumdir/quranData_buff_1/tmat_counts [24x3x4 array]
INFO: s3gau_io.c(478): Wrote /home/za-softcodes/Desktop/FYP/quranDataForSphinxTrain/bwaccumdir/quranData_buff_1/gauden_counts with means with vars (2pass) [171x1x4 vector arrays]
INFO: main.c(1014): Counts saved to /home/za-softcodes/Desktop/FYP/quranDataForSphinxTrain/bwaccumdir/quranData_buff_1
Tue Apr 15 08:42:58 2014
