        INFO: main.c(229): Compiled on Apr 11 2014 at 10:45:13
INFO: cmd_ln.c(691): Parsing command line:
/usr/local/libexec/sphinxtrain/bw \
	-moddeffn /home/za-softcodes/Desktop/FYP/112TranslitrationSphinxTrain/model_architecture/112Translitration.ci.mdef \
	-ts2cbfn .cont. \
	-mixwfn /home/za-softcodes/Desktop/FYP/112TranslitrationSphinxTrain/model_parameters/112Translitration.ci_cont/mixture_weights \
	-mwfloor 1e-08 \
	-tmatfn /home/za-softcodes/Desktop/FYP/112TranslitrationSphinxTrain/model_parameters/112Translitration.ci_cont/transition_matrices \
	-meanfn /home/za-softcodes/Desktop/FYP/112TranslitrationSphinxTrain/model_parameters/112Translitration.ci_cont/means \
	-varfn /home/za-softcodes/Desktop/FYP/112TranslitrationSphinxTrain/model_parameters/112Translitration.ci_cont/variances \
	-dictfn /home/za-softcodes/Desktop/FYP/112TranslitrationSphinxTrain/etc/112Translitration.dic \
	-fdictfn /home/za-softcodes/Desktop/FYP/112TranslitrationSphinxTrain/etc/112Translitration.filler \
	-ctlfn /home/za-softcodes/Desktop/FYP/112TranslitrationSphinxTrain/etc/112Translitration_train.fileids \
	-part 1 \
	-npart 1 \
	-cepdir /home/za-softcodes/Desktop/FYP/112TranslitrationSphinxTrain/feat \
	-cepext mfc \
	-lsnfn /home/za-softcodes/Desktop/FYP/112TranslitrationSphinxTrain/etc/112Translitration_train.transcription \
	-accumdir /home/za-softcodes/Desktop/FYP/112TranslitrationSphinxTrain/bwaccumdir/112Translitration_buff_1 \
	-varfloor 0.0001 \
	-topn 1 \
	-abeam 1e-90 \
	-bbeam 1e-10 \
	-agc none \
	-cmn current \
	-varnorm no \
	-meanreest yes \
	-varreest yes \
	-2passvar yes \
	-tmatreest yes \
	-fullvar no \
	-diagfull no \
	-feat 1s_c_d_dd \
	-ceplen 13 \
	-timing no 

Current configuration:
[NAME]			[DEFLT]		[VALUE]
-2passvar		no		yes
-abeam			1e-100		1.000000e-90
-accumdir				/home/za-softcodes/Desktop/FYP/112TranslitrationSphinxTrain/bwaccumdir/112Translitration_buff_1
-agc			none		none
-agcthresh		2.0		2.000000e+00
-bbeam			1e-100		1.000000e-10
-cb2mllrfn		.1cls.		.1cls.
-cepdir					/home/za-softcodes/Desktop/FYP/112TranslitrationSphinxTrain/feat
-cepext			mfc		mfc
-ceplen			13		13
-ckptintv				0
-cmn			current		current
-cmninit		8.0		8.0
-ctlfn					/home/za-softcodes/Desktop/FYP/112TranslitrationSphinxTrain/etc/112Translitration_train.fileids
-diagfull		no		no
-dictfn					/home/za-softcodes/Desktop/FYP/112TranslitrationSphinxTrain/etc/112Translitration.dic
-example		no		no
-fdictfn				/home/za-softcodes/Desktop/FYP/112TranslitrationSphinxTrain/etc/112Translitration.filler
-feat			1s_c_d_dd	1s_c_d_dd
-fullsuffixmatch	no		no
-fullvar		no		no
-help			no		no
-hmmdir					
-latdir					
-latext					
-lda					
-ldaaccum		no		no
-ldadim			0		0
-lsnfn					/home/za-softcodes/Desktop/FYP/112TranslitrationSphinxTrain/etc/112Translitration_train.transcription
-lw			11.5		1.150000e+01
-maxuttlen		0		0
-meanfn					/home/za-softcodes/Desktop/FYP/112TranslitrationSphinxTrain/model_parameters/112Translitration.ci_cont/means
-meanreest		yes		yes
-mixwfn					/home/za-softcodes/Desktop/FYP/112TranslitrationSphinxTrain/model_parameters/112Translitration.ci_cont/mixture_weights
-mixwreest		yes		yes
-mllrmat				
-mmie			no		no
-mmie_type		rand		rand
-moddeffn				/home/za-softcodes/Desktop/FYP/112TranslitrationSphinxTrain/model_architecture/112Translitration.ci.mdef
-mwfloor		0.00001		1.000000e-08
-npart					1
-nskip					0
-outphsegdir				
-outputfullpath		no		no
-part					1
-pdumpdir				
-phsegdir				
-phsegext		phseg		phseg
-runlen			-1		-1
-sentdir				
-sentext		sent		sent
-spthresh		0.0		0.000000e+00
-svspec					
-timing			yes		no
-tmatfn					/home/za-softcodes/Desktop/FYP/112TranslitrationSphinxTrain/model_parameters/112Translitration.ci_cont/transition_matrices
-tmatreest		yes		yes
-topn			4		1
-tpfloor		0.0001		1.000000e-04
-ts2cbfn				.cont.
-varfloor		0.00001		1.000000e-04
-varfn					/home/za-softcodes/Desktop/FYP/112TranslitrationSphinxTrain/model_parameters/112Translitration.ci_cont/variances
-varnorm		no		no
-varreest		yes		yes
-viterbi		no		no

INFO: feat.c(713): Initializing feature stream to type: '1s_c_d_dd', ceplen=13, CMN='current', VARNORM='no', AGC='none'
INFO: cmn.c(142): mean[0]= 12.00, mean[1..12]= 0.0
INFO: main.c(318): Reading /home/za-softcodes/Desktop/FYP/112TranslitrationSphinxTrain/model_architecture/112Translitration.ci.mdef
INFO: model_def_io.c(573): Model definition info:
INFO: model_def_io.c(574): 23 total models defined (23 base, 0 tri)
INFO: model_def_io.c(575): 92 total states
INFO: model_def_io.c(576): 69 total tied states
INFO: model_def_io.c(577): 69 total tied CI states
INFO: model_def_io.c(578): 23 total tied transition matrices
INFO: model_def_io.c(579): 4 max state/model
INFO: model_def_io.c(580): 4 min state/model
INFO: s3mixw_io.c(116): Read /home/za-softcodes/Desktop/FYP/112TranslitrationSphinxTrain/model_parameters/112Translitration.ci_cont/mixture_weights [69x1x1 array]
INFO: s3tmat_io.c(115): Read /home/za-softcodes/Desktop/FYP/112TranslitrationSphinxTrain/model_parameters/112Translitration.ci_cont/transition_matrices [23x3x4 array]
INFO: mod_inv.c(300): inserting tprob floor 1.000000e-04 and renormalizing
INFO: s3gau_io.c(166): Read /home/za-softcodes/Desktop/FYP/112TranslitrationSphinxTrain/model_parameters/112Translitration.ci_cont/means [69x1x1 array]
INFO: s3gau_io.c(166): Read /home/za-softcodes/Desktop/FYP/112TranslitrationSphinxTrain/model_parameters/112Translitration.ci_cont/variances [69x1x1 array]
INFO: gauden.c(183): 69 total mgau
INFO: gauden.c(157): 1 feature streams (|0|=39 )
INFO: gauden.c(194): 1 total densities
INFO: gauden.c(97): min_var=1.000000e-04
INFO: gauden.c(172): compute 1 densities/frame
INFO: main.c(430): Will reestimate mixing weights.
INFO: main.c(432): Will reestimate means.
INFO: main.c(434): Will reestimate variances.
INFO: main.c(442): Will reestimate transition matrices
INFO: main.c(455): Reading main lexicon: /home/za-softcodes/Desktop/FYP/112TranslitrationSphinxTrain/etc/112Translitration.dic
INFO: lexicon.c(220): 12 entries added from /home/za-softcodes/Desktop/FYP/112TranslitrationSphinxTrain/etc/112Translitration.dic
INFO: main.c(465): Reading filler lexicon: /home/za-softcodes/Desktop/FYP/112TranslitrationSphinxTrain/etc/112Translitration.filler
INFO: lexicon.c(220): 3 entries added from /home/za-softcodes/Desktop/FYP/112TranslitrationSphinxTrain/etc/112Translitration.filler
INFO: corpus.c(1086): Will process all remaining utts starting at 0
INFO: main.c(665): Reestimation: Baum-Welch
INFO: cmn.c(175): CMN: 10.75  0.07 -0.45  0.34 -0.67 -0.05  0.08 -0.56 -0.23 -0.11 -0.05 -0.15 -0.11 
column defns
	<seq>
	<id>
	<n_frame_in>
	<n_frame_del>
	<n_state_shmm>
	<avg_states_alpha>
	<avg_states_beta>
	<avg_states_reest>
	<avg_posterior_prune>
	<frame_log_lik>
	<utt_log_lik>
	... timing info ... 
utt>     0                    112001  323    0INFO: cvt2triphone.c(199): no multiphones defined, no conversion done
    44 17  1 2 1.970710e-12 5.946935e+00 1.920860e+03
INFO: cmn.c(175): CMN: 10.64 -0.06 -0.44  0.22 -0.69  0.05  0.07 -0.53 -0.21 -0.15 -0.06 -0.13 -0.07 
utt>     1                    112002  291    0    32 13  1 2 7.877596e-13 5.229739e+00 1.521854e+03
INFO: cmn.c(175): CMN: 11.08 -0.07 -0.64  0.57 -0.43 -0.16 -0.02 -0.57 -0.11 -0.06  0.01 -0.15 -0.08 
utt>     2                    112003  352    0    44 18  1 2 1.527817e-12 5.515557e+00 1.941476e+03
INFO: cmn.c(175): CMN: 11.25 -0.05 -0.69  0.35 -0.39 -0.04  0.05 -0.54 -0.13 -0.00  0.02 -0.16 -0.09 
utt>     3                    112004  433    0    56 20  1 3 2.024226e-12 4.344258e+00 1.881064e+03
INFO: cmn.c(175): CMN: 12.01 -0.02 -0.31 -0.19 -0.74  0.08 -0.29 -0.16 -0.03 -0.02 -0.03 -0.01  0.08 
utt>     4                    112001  367    0    44 16  1 2 2.246946e-12 -8.205000e-01 -3.011235e+02
INFO: cmn.c(175): CMN: 11.20 -0.01 -0.25 -0.41 -0.73  0.19 -0.34 -0.13 -0.10  0.03 -0.05  0.11  0.07 
utt>     5                    112002  349    0    32 12  1 2 1.682318e-12 1.354978e+00 4.728872e+02
INFO: cmn.c(175): CMN: 11.74  0.06 -0.45  0.15 -0.51  0.07 -0.46 -0.13 -0.09  0.05  0.06 -0.10  0.17 
utt>     6                    112003  388    0    44 16  1 2 1.914460e-12 2.278586e+00 8.840913e+02
INFO: cmn.c(175): CMN: 11.18  0.25 -0.34  0.15 -0.60  0.10 -0.46 -0.20 -0.19 -0.02 -0.07 -0.17  0.03 
utt>     7                    112004  513    0    56 15  1 2 2.632302e-12 2.065621e+00 1.059664e+03
INFO: cmn.c(175): CMN:  9.26 -0.50 -0.95  0.06 -0.27  0.05  0.07 -0.27 -0.15 -0.22 -0.29 -0.01 -0.23 
utt>     8                    112001  767    0    44 16  1 2 1.195375e-12 2.060538e+00 1.580433e+03
INFO: cmn.c(175): CMN: 11.09 -0.60 -0.86 -0.28 -0.44  0.29  0.07 -0.36 -0.10 -0.20 -0.34 -0.03 -0.17 
utt>     9                    112002  547    0    32 13  1 2 7.804698e-13 2.076682e+00 1.135945e+03
INFO: cmn.c(175): CMN: 11.46 -0.38 -1.07  0.18 -0.42  0.02  0.18 -0.35 -0.06 -0.13 -0.32 -0.15 -0.10 
utt>    10                    112003  717    0    44 16  1 2 1.526344e-12 3.263844e+00 2.340176e+03
INFO: cmn.c(175): CMN: 11.32 -0.26 -0.99  0.14 -0.38  0.01  0.27 -0.44 -0.10 -0.16 -0.27 -0.23 -0.16 
utt>    11                    112004  890    0    56 18  1 2 1.549036e-12 5.422625e-01 4.826136e+02
INFO: cmn.c(175): CMN: 11.41  0.28 -0.29  0.12 -0.95 -0.14 -0.09 -0.44  0.15 -0.04 -0.14  0.07 -0.21 
utt>    12                    112001  294    0    44 19  1 3 3.575710e-12 6.301500e+00 1.852641e+03
INFO: cmn.c(175): CMN: 11.31  0.17 -0.29 -0.04 -1.03 -0.08 -0.03 -0.36  0.19 -0.03 -0.12  0.13 -0.21 
utt>    13                    112002  255    0    32 16  1 2 1.190787e-12 7.802279e+00 1.989581e+03
INFO: cmn.c(175): CMN: 11.54  0.08 -0.37  0.31 -0.92 -0.13 -0.26 -0.28  0.21 -0.13 -0.02  0.02 -0.25 
utt>    14                    112003  276    0    44 25  1 3 3.063452e-12 6.612952e+00 1.825175e+03
INFO: cmn.c(175): CMN: 11.11  0.46 -0.32  0.11 -0.88 -0.15 -0.20 -0.38  0.18 -0.05  0.02  0.05 -0.25 
utt>    15                    112004  456    0    56 22  1 3 1.698124e-12 7.049779e+00 3.214699e+03
INFO: cmn.c(175): CMN: 12.97  0.18 -0.20  0.04 -0.73  0.10 -0.36 -0.20 -0.13 -0.13 -0.12 -0.26 -0.07 
utt>    16                    112001  271    0    44 17  1 2 2.086425e-12 5.331623e+00 1.444870e+03
INFO: cmn.c(175): CMN: 13.07  0.11 -0.12 -0.14 -0.76  0.17 -0.40 -0.15 -0.16 -0.16 -0.13 -0.16 -0.08 
utt>    17                    112002  216    0    32 14  1 2 1.724392e-12 5.429801e+00 1.172837e+03
INFO: cmn.c(175): CMN: 13.80 -0.15 -0.34  0.41 -0.49 -0.12 -0.51 -0.07 -0.25 -0.06 -0.12 -0.28  0.11 
utt>    18                    112003  278    0    44 20  1 3 1.994059e-12 5.724835e+00 1.591504e+03
INFO: cmn.c(175): CMN: 13.24  0.17 -0.36  0.21 -0.52 -0.11 -0.49 -0.15 -0.19  0.02 -0.09 -0.42 -0.03 
utt>    19                    112004  383    0    56 20  1 3 2.191770e-12 7.119830e+00 2.726895e+03
INFO: cmn.c(175): CMN: 11.12  0.56 -0.35 -0.03 -0.69  0.05 -0.27 -0.54 -0.10 -0.22  0.18 -0.27  0.12 
utt>    20                    112001  307    0    44 17  1 3 1.614803e-12 1.688665e+00 5.184202e+02
INFO: cmn.c(175): CMN: 11.23  0.28 -0.10 -0.17 -0.94  0.17 -0.33 -0.47 -0.08 -0.27  0.20 -0.34  0.19 
utt>    21                    112002  263    0    32 12  1 2 1.805301e-12 3.408138e+00 8.963402e+02
INFO: cmn.c(175): CMN: 11.69  0.30 -0.37  0.31 -0.40 -0.03 -0.48 -0.58 -0.22 -0.30  0.24 -0.39  0.15 
utt>    22                    112003  307    0    44 17  1 3 1.437444e-12 4.539663e+00 1.393677e+03
INFO: cmn.c(175): CMN: 10.13  0.60 -0.27  0.14 -0.40  0.04 -0.45 -0.53 -0.26 -0.21  0.18 -0.41 -0.03 
utt>    23                    112004  495    0    56 18  1 2 2.283198e-12 6.244384e+00 3.090970e+03
INFO: cmn.c(175): CMN: 12.78  0.12 -0.51  0.07 -0.57  0.09 -0.03 -0.33 -0.10 -0.18  0.04 -0.29  0.07 
utt>    24                    112001  294    0    44 18  1 3 3.306928e-12 3.546651e+00 1.042715e+03
INFO: cmn.c(175): CMN: 13.15 -0.23 -0.21 -0.28 -0.31 -0.03 -0.28 -0.27 -0.10  0.14 -0.01 -0.27  0.10 
utt>    25                    112002  208    0    32 15  1 3 9.884249e-13 5.413837e+00 1.126078e+03
INFO: cmn.c(175): CMN: 13.83  0.22 -0.53  0.25 -0.33 -0.17 -0.26 -0.34 -0.07 -0.18  0.10 -0.34  0.23 
utt>    26                    112003  247    0    44 22  2 4 3.257043e-12 4.334448e-01 1.070609e+02
INFO: cmn.c(175): CMN: 12.90  0.46 -0.48  0.07 -0.31 -0.10 -0.25 -0.36 -0.09 -0.10  0.12 -0.35  0.13 
utt>    27                    112004  338    0    56 21  2 3 3.341869e-12 3.808034e+00 1.287116e+03
INFO: cmn.c(175): CMN:  7.27  0.20 -0.24  0.12 -0.59 -0.11  0.05 -0.34  0.04 -0.26  0.01 -0.14 -0.26 
utt>    28                    112001  354    0    44 17  1 2 1.794737e-12 1.951025e-01 6.906628e+01
INFO: cmn.c(175): CMN: 12.48  0.13 -0.18 -0.19 -0.71 -0.09 -0.00 -0.34 -0.01 -0.36 -0.04 -0.05 -0.30 
utt>    29                    112002  216    0    32 17  2 3 3.967221e-12 -1.442516e+00 -3.115835e+02
INFO: cmn.c(175): CMN: 12.21  0.04 -0.33  0.45 -0.37 -0.24 -0.17 -0.30 -0.06 -0.16 -0.06 -0.22 -0.18 
utt>    30                    112003  315    0    44 21  1 3 3.441037e-12 3.119154e+00 9.825336e+02
INFO: cmn.c(175): CMN: 11.51  0.40 -0.31  0.37 -0.42 -0.21 -0.05 -0.34 -0.08 -0.10  0.04 -0.15 -0.13 
utt>    31                    112004  399    0    56 22  2 3 3.214769e-12 2.918536e+00 1.164496e+03
INFO: cmn.c(175): CMN: 11.23  0.85 -0.17 -0.54  0.21 -0.52 -0.15 -0.25 -0.51  0.05 -0.22 -0.22 -0.32 
utt>    32                    112001  352    0    44 18  1 3 2.056557e-12 -8.071643e+00 -2.841218e+03
INFO: cmn.c(175): CMN: 11.03  0.59 -0.11 -0.47 -0.08 -0.29 -0.15 -0.40 -0.32  0.03 -0.24 -0.16 -0.33 
utt>    33                    112002  323    0    32 10  1 2 1.636395e-12 -7.506301e+00 -2.424535e+03
INFO: cmn.c(175): CMN: 12.04  0.52 -0.29 -0.38  0.41 -0.47 -0.45 -0.15 -0.46 -0.03 -0.20 -0.34 -0.29 
utt>    34                    112003  362    0    44 17  1 2 1.530920e-12 -6.369122e+00 -2.305622e+03
INFO: cmn.c(175): CMN: 11.74  0.87 -0.32 -0.47  0.43 -0.55 -0.26 -0.28 -0.45  0.09 -0.20 -0.29 -0.36 
utt>    35                    112004  459    0    56 16  1 2 9.774656e-13 -6.504317e+00 -2.985481e+03
INFO: cmn.c(175): CMN:  9.76  0.31 -0.86  0.31 -0.75 -0.18  0.17 -0.18 -0.10  0.01 -0.13  0.03 -0.08 
utt>    36                    112001  589    0    44 14  1 2 9.406918e-13 4.169552e+00 2.455866e+03
INFO: cmn.c(175): CMN:  9.90  0.19 -0.88  0.05 -0.82 -0.06  0.19 -0.19 -0.10 -0.00 -0.29  0.03 -0.08 
utt>    37                    112002  511    0    32 13  1 2 1.124982e-12 5.078394e+00 2.595059e+03
INFO: cmn.c(175): CMN: 10.49  0.28 -1.01  0.50 -0.49 -0.31  0.03 -0.37 -0.06  0.04  0.05 -0.00 -0.14 
utt>    38                    112003  600    0    44 16  1 2 1.079595e-12 5.468556e+00 3.281133e+03
INFO: cmn.c(175): CMN:  9.36  0.55 -0.76  0.29 -0.44 -0.26  0.02 -0.46 -0.34  0.02  0.05 -0.05 -0.15 
utt>    39                    112004  819    0    56 15  1 2 8.687261e-13 6.274613e+00 5.138908e+03
INFO: cmn.c(175): CMN:  9.20 -0.12 -0.47 -0.02 -0.41 -0.20  0.30 -0.15 -0.05 -0.02 -0.28  0.04 -0.16 
utt>    40                    112001  913    0    44 12  1 1 5.552757e-13 5.069765e+00 4.628695e+03
INFO: cmn.c(175): CMN:  8.86 -0.24 -0.42 -0.11 -0.40 -0.12  0.30 -0.19  0.01 -0.01 -0.26  0.07 -0.17 
utt>    41                    112002  704    0    32 10  1 1 5.418153e-13 3.391008e+00 2.387270e+03
INFO: cmn.c(175): CMN:  9.97 -0.11 -0.58  0.14 -0.23 -0.34  0.31 -0.27 -0.01  0.07 -0.26  0.03 -0.23 
utt>    42                    112003  817    0    44 12  1 1 5.444163e-13 2.059405e+00 1.682534e+03
INFO: cmn.c(175): CMN: 10.37 -0.16 -0.57  0.15 -0.35 -0.26  0.23 -0.28 -0.14  0.03 -0.23 -0.09 -0.23 
utt>    43                    112004  955    0    56 13  1 1 8.112675e-13 1.970201e+00 1.881542e+03
INFO: cmn.c(175): CMN:  8.88 -0.19 -0.51  0.06 -0.55 -0.27  0.08 -0.38 -0.10  0.00 -0.06  0.06  0.01 
utt>    44                    112001  602    0    44 12  1 1 8.292260e-13 5.203048e+00 3.132235e+03
INFO: cmn.c(175): CMN:  8.06 -0.34 -0.41  0.02 -0.50 -0.19  0.03 -0.32 -0.07  0.01 -0.08  0.02  0.06 
utt>    45                    112002  589    0    32 8  1 1 6.369518e-13 5.906855e+00 3.479138e+03
INFO: cmn.c(175): CMN:  8.53 -0.17 -0.68  0.29 -0.23 -0.29  0.02 -0.50  0.01 -0.03 -0.01  0.02 -0.07 
utt>    46                    112003  613    0    44 13  1 2 6.672254e-13 1.755315e+00 1.076008e+03
INFO: cmn.c(175): CMN:  5.41  0.02 -0.50  0.24 -0.23 -0.17  0.05 -0.38 -0.04  0.03  0.01  0.02 -0.05 
utt>    47                    112004  845    0    56 10  1 1 9.514200e-13 2.725642e+00 2.303167e+03
INFO: cmn.c(175): CMN: 11.45 -0.01 -0.04 -0.33 -0.36  0.01 -0.17 -0.13 -0.08 -0.17 -0.11 -0.09 -0.10 
utt>    48                    112001  337    0    44 17  1 2 2.640072e-12 2.768037e+00 9.328285e+02
INFO: cmn.c(175): CMN: 11.19 -0.22  0.07 -0.34 -0.42  0.10 -0.25 -0.21  0.00 -0.21 -0.11  0.01 -0.10 
utt>    49                    112002  316    0    32 12  1 2 2.563892e-12 3.631140e+00 1.147440e+03
INFO: cmn.c(175): CMN: 11.95 -0.31  0.00 -0.18 -0.10  0.00 -0.36 -0.03 -0.02 -0.26  0.08 -0.14 -0.13 
utt>    50                    112003  366    0    44 18  1 3 2.026957e-12 3.326908e+00 1.217648e+03
INFO: cmn.c(175): CMN: 11.90 -0.07 -0.02 -0.37 -0.11 -0.04 -0.32 -0.11 -0.08 -0.14 -0.02 -0.15 -0.18 
utt>    51                    112004  499    0    56 18  1 2 1.254210e-12 1.940730e+00 9.684241e+02
INFO: cmn.c(175): CMN: 14.21  0.29 -0.87  0.61 -1.07  0.38 -0.31 -0.34 -0.19 -0.31  0.05 -0.39 -0.02 
utt>    52                    112001  200    0    44 22  2 4 4.499343e-12 -1.343112e+00 -2.686224e+02
INFO: cmn.c(175): CMN: 14.12 -0.03 -0.58  0.46 -1.10  0.32 -0.29 -0.37 -0.09 -0.30 -0.10 -0.17 -0.09 
utt>    53                    112002  166    0    32 15  1 3 1.639075e-12 1.516846e+00 2.517964e+02
INFO: cmn.c(175): CMN: 14.31  0.17 -1.11  0.93 -0.66  0.22 -0.50 -0.37 -0.18 -0.51  0.20 -0.59  0.01 
utt>    54                    112003  218    0    44 21  2 3 2.646709e-12 1.353909e+00 2.951521e+02
INFO: cmn.c(175): CMN: 14.42  0.32 -0.98  0.77 -0.77  0.31 -0.43 -0.33 -0.26 -0.29  0.19 -0.52 -0.08 
utt>    55                    112004  299    0    56 21  1 3 3.227835e-12 2.144640e+00 6.412474e+02
INFO: cmn.c(175): CMN: 14.67 -0.54 -0.59 -0.79 -0.70  0.22 -0.19 -0.00 -0.33  0.09 -0.06 -0.08 -0.21 
utt>    56                    112001  456    0    44 23  1 3 2.203615e-12 5.278883e+00 2.407171e+03
INFO: cmn.c(175): CMN: 14.86 -0.81 -0.80 -0.84 -0.50  0.23 -0.43  0.05 -0.38  0.17  0.01 -0.12 -0.25 
utt>    57                    112002  396    0    32 19  1 2 1.079337e-12 5.380577e+00 2.130708e+03
INFO: cmn.c(175): CMN: 11.29 -0.05 -0.63 -0.52 -0.42  0.05 -0.30 -0.10 -0.23  0.13 -0.07 -0.15 -0.22 
utt>    58                    112003 1245    0    44 10  1 1 3.836967e-13 4.209466e+00 5.240785e+03
INFO: cmn.c(175): CMN: 12.94  0.08 -0.73 -0.52 -0.43 -0.05 -0.03 -0.16 -0.30  0.11  0.04 -0.09 -0.36 
utt>    59                    112004  704    0    56 21  1 2 2.080399e-12 5.071847e+00 3.570581e+03
INFO: cmn.c(175): CMN: 13.25  0.62 -0.93  0.05 -0.64 -0.10 -0.16 -0.29 -0.34 -0.17 -0.22 -0.13 -0.30 
utt>    60                    112001  320    0    44 18  1 2 9.380840e-13 6.462265e+00 2.067925e+03
INFO: cmn.c(175): CMN: 13.45  0.08 -0.72 -0.04 -0.75 -0.11 -0.19 -0.30 -0.23 -0.19 -0.25 -0.16 -0.15 
utt>    61                    112002  265    0    32 14  1 2 8.800090e-13 8.320076e+00 2.204820e+03
INFO: cmn.c(175): CMN: 13.88  0.19 -0.90  0.27 -0.39 -0.03 -0.31 -0.48 -0.22 -0.25 -0.19 -0.10 -0.43 
utt>    62                    112003  336    0    44 21  1 3 1.654935e-12 8.734851e+00 2.934910e+03
INFO: cmn.c(175): CMN: 13.34  0.34 -0.90  0.28 -0.48 -0.10 -0.16 -0.42 -0.29 -0.27 -0.06 -0.03 -0.44 
utt>    63                    112004  472    0    56 25  1 3 2.405431e-12 8.738277e+00 4.124467e+03
INFO: cmn.c(175): CMN: 11.44  1.06 -0.10 -0.43 -0.44 -0.35 -0.17 -0.25 -0.38 -0.12 -0.11 -0.09 -0.14 
utt>    64                    112001  469    0    44 20  1 2 2.794046e-12 2.895007e+00 1.357758e+03
INFO: cmn.c(175): CMN: 11.36  0.78 -0.12 -0.50 -0.51 -0.38 -0.19 -0.18 -0.31 -0.13 -0.08 -0.02 -0.11 
utt>    65                    112002  433    0    32 15  1 2 1.250392e-12 3.960076e+00 1.714713e+03
INFO: cmn.c(175): CMN: 11.56  0.81 -0.20 -0.42 -0.21 -0.34 -0.40 -0.28 -0.23  0.11 -0.01 -0.10 -0.04 
utt>    66                    112003  516    0    44 23  1 2 2.504971e-12 3.093650e+00 1.596324e+03
INFO: cmn.c(175): CMN: 11.66  0.98 -0.17 -0.33 -0.27 -0.34 -0.40 -0.38 -0.33 -0.02  0.02 -0.10 -0.20 
utt>    67                    112004  657    0    56 24  1 2 2.512775e-12 5.628924e+00 3.698203e+03
INFO: cmn.c(175): CMN: 11.99  0.25 -0.19  0.10 -0.61 -0.10 -0.23 -0.24 -0.31 -0.15 -0.14 -0.30 -0.11 
utt>    68                    112001  352    0    44 14  1 2 1.638263e-12 2.317109e+00 8.156225e+02
INFO: cmn.c(175): CMN: 12.41  0.22 -0.15 -0.12 -0.80 -0.06 -0.27 -0.26 -0.22 -0.15 -0.16 -0.30 -0.07 
utt>    69                    112002  286    0    32 13  1 2 1.162258e-12 3.256052e+00 9.312310e+02
INFO: cmn.c(175): CMN: 12.80  0.16 -0.27  0.26 -0.39 -0.10 -0.51 -0.30 -0.39  0.01 -0.19 -0.37 -0.04 
utt>    70                    112003  365    0    44 15  1 2 1.520072e-12 4.681758e+00 1.708842e+03
INFO: cmn.c(175): CMN: 12.71  0.33 -0.34  0.13 -0.46 -0.06 -0.36 -0.30 -0.42  0.07 -0.12 -0.44 -0.14 
utt>    71                    112004  472    0    56 17  1 2 2.503512e-12 4.616893e+00 2.179174e+03
INFO: cmn.c(175): CMN: 13.46  0.60 -0.60 -0.11 -0.81 -0.14 -0.25 -0.19 -0.16 -0.09  0.13 -0.05 -0.25 
utt>    72                    112001  299    0    44 20  1 3 2.107319e-12 -2.794077e-01 -8.354290e+01
INFO: cmn.c(175): CMN: 13.36  0.60 -0.56 -0.29 -0.81 -0.05 -0.23 -0.23 -0.20 -0.10  0.12 -0.01 -0.22 
utt>    73                    112002  255    0    32 17  1 2 2.716907e-12 2.106009e+00 5.370323e+02
INFO: cmn.c(175): CMN: 13.50  0.73 -0.82  0.41 -0.49 -0.13 -0.35 -0.49 -0.31 -0.21 -0.06 -0.27 -0.20 
utt>    74                    112003  305    0    44 20  1 3 2.096685e-12 4.125260e+00 1.258204e+03
INFO: cmn.c(175): CMN: 13.21  0.66 -0.76  0.31 -0.63 -0.14 -0.20 -0.49 -0.30 -0.08  0.02 -0.18 -0.28 
utt>    75                    112004  422    0    56 19  1 3 2.818468e-12 8.163454e-01 3.444978e+02
INFO: cmn.c(175): CMN: 13.78  0.66 -0.54 -0.23 -0.46 -0.21 -0.22 -0.33 -0.16 -0.11 -0.09 -0.08 -0.32 
utt>    76                    112001  247    0    44 19  1 3 1.833862e-12 9.460689e+00 2.336790e+03
INFO: cmn.c(175): CMN: 13.84  0.53 -0.45 -0.40 -0.61 -0.13 -0.20 -0.32 -0.13 -0.17 -0.11  0.01 -0.28 
utt>    77                    112002  203    0    32 15  1 2 1.196562e-12 1.123817e+01 2.281349e+03
INFO: cmn.c(175): CMN: 13.85  0.56 -0.60 -0.01 -0.20 -0.30 -0.42 -0.31 -0.21  0.03 -0.14 -0.18 -0.31 
utt>    78                    112003  276    0    44 21  1 3 3.646425e-12 7.989891e+00 2.205210e+03
INFO: cmn.c(175): CMN: 13.74  0.55 -0.61 -0.14 -0.29 -0.31 -0.33 -0.28 -0.19  0.02 -0.10 -0.18 -0.38 
utt>    79                    112004  393    0    56 20  1 3 1.444859e-12 9.311986e+00 3.659610e+03
INFO: cmn.c(175): CMN: 12.64  0.69  0.04 -0.13 -0.42 -0.18 -0.41 -0.18 -0.30 -0.27 -0.07 -0.15 -0.22 
utt>    80                    112001  213    0    44 20  1 3 3.483104e-12 9.459075e+00 2.014783e+03
INFO: cmn.c(175): CMN: 12.55  0.41  0.20 -0.28 -0.53 -0.19 -0.39 -0.17 -0.22 -0.23 -0.08 -0.14 -0.20 
utt>    81                    112002  208    0    32 17  1 3 2.146686e-12 8.206453e+00 1.706942e+03
INFO: cmn.c(175): CMN: 12.95  0.55  0.08 -0.14 -0.25 -0.25 -0.55 -0.15 -0.37 -0.26 -0.08 -0.10 -0.36 
utt>    82                    112003  250    0    44 27  2 3 2.009242e-12 6.936212e+00 1.734053e+03
INFO: cmn.c(175): CMN: 12.75  0.51 -0.02 -0.09 -0.30 -0.28 -0.52 -0.12 -0.36 -0.25 -0.04 -0.10 -0.37 
utt>    83                    112004  375    0    56 27  2 3 2.896854e-12 9.131734e+00 3.424400e+03
INFO: cmn.c(175): CMN: 13.23  0.59 -0.88 -0.12 -0.85 -0.28 -0.44 -0.34 -0.21 -0.24 -0.09 -0.15 -0.22 
utt>    84                    112001  208    0    44 22  1 3 3.378009e-12 5.572606e+00 1.159102e+03
INFO: cmn.c(175): CMN: 13.06  0.36 -0.71 -0.12 -0.87 -0.21 -0.46 -0.34 -0.15 -0.25 -0.16 -0.16 -0.20 
utt>    85                    112002  179    0    32 15  1 3 2.971565e-12 5.089564e+00 9.110319e+02
INFO: cmn.c(175): CMN: 13.57  0.35 -1.02  0.23 -0.49 -0.40 -0.52 -0.40 -0.25 -0.23 -0.04 -0.26 -0.32 
utt>    86                    112003  229    0    44 21  2 4 3.682455e-12 4.497973e+00 1.030036e+03
INFO: cmn.c(175): CMN: 13.12  0.52 -1.00 -0.02 -0.63 -0.29 -0.48 -0.36 -0.25 -0.19  0.01 -0.22 -0.38 
utt>    87                    112004  333    0    56 25  2 4 4.585790e-12 5.441365e+00 1.811975e+03
INFO: cmn.c(175): CMN: 13.05  0.38 -0.28  0.28 -0.72 -0.14 -0.13 -0.35 -0.13 -0.13 -0.15 -0.21 -0.17 
utt>    88                    112001  297    0    44 16  1 2 2.079566e-12 6.151276e+00 1.826929e+03
INFO: cmn.c(175): CMN: 13.22  0.44 -0.19 -0.06 -0.91 -0.03 -0.19 -0.45 -0.02 -0.12 -0.21 -0.16 -0.17 
utt>    89                    112002  244    0    32 14  1 2 1.388816e-12 7.842699e+00 1.913618e+03
INFO: cmn.c(175): CMN: 13.37  0.38 -0.38  0.47 -0.52 -0.18 -0.36 -0.49 -0.05 -0.13 -0.17 -0.33 -0.02 
utt>    90                    112003  328    0    44 21  1 3 3.252311e-12 5.186150e+00 1.701057e+03
INFO: cmn.c(175): CMN: 13.33  0.43 -0.41  0.37 -0.52 -0.19 -0.38 -0.42 -0.08 -0.08 -0.15 -0.24 -0.09 
utt>    91                    112004  406    0    56 22  1 3 3.628414e-12 6.511644e+00 2.643728e+03
overall> stats 37977 (-0) 3.788495e+00 1.438757e+05

INFO: s3mixw_io.c(232): Wrote /home/za-softcodes/Desktop/FYP/112TranslitrationSphinxTrain/bwaccumdir/112Translitration_buff_1/mixw_counts [69x1x1 array]
INFO: s3tmat_io.c(174): Wrote /home/za-softcodes/Desktop/FYP/112TranslitrationSphinxTrain/bwaccumdir/112Translitration_buff_1/tmat_counts [23x3x4 array]
INFO: s3gau_io.c(478): Wrote /home/za-softcodes/Desktop/FYP/112TranslitrationSphinxTrain/bwaccumdir/112Translitration_buff_1/gauden_counts with means with vars (2pass) [69x1x1 vector arrays]
INFO: main.c(1014): Counts saved to /home/za-softcodes/Desktop/FYP/112TranslitrationSphinxTrain/bwaccumdir/112Translitration_buff_1
Tue Apr 15 08:41:06 2014
