        INFO: main.c(229): Compiled on Apr 11 2014 at 10:45:13
INFO: cmd_ln.c(691): Parsing command line:
/usr/local/libexec/sphinxtrain/bw \
	-moddeffn /home/za-softcodes/Desktop/FYP/112TranslitrationSphinxTrain/model_architecture/112Translitration.200.mdef \
	-ts2cbfn .cont. \
	-mixwfn /home/za-softcodes/Desktop/FYP/112TranslitrationSphinxTrain/model_parameters/112Translitration.cd_cont_200/mixture_weights \
	-mwfloor 1e-05 \
	-tpfloor 1e-05 \
	-tmatfn /home/za-softcodes/Desktop/FYP/112TranslitrationSphinxTrain/model_parameters/112Translitration.cd_cont_200/transition_matrices \
	-meanfn /home/za-softcodes/Desktop/FYP/112TranslitrationSphinxTrain/model_parameters/112Translitration.cd_cont_200/means \
	-varfn /home/za-softcodes/Desktop/FYP/112TranslitrationSphinxTrain/model_parameters/112Translitration.cd_cont_200/variances \
	-dictfn /home/za-softcodes/Desktop/FYP/112TranslitrationSphinxTrain/etc/112Translitration.dic \
	-fdictfn /home/za-softcodes/Desktop/FYP/112TranslitrationSphinxTrain/etc/112Translitration.filler \
	-ctlfn /home/za-softcodes/Desktop/FYP/112TranslitrationSphinxTrain/etc/112Translitration_train.fileids \
	-part 1 \
	-npart 1 \
	-cepdir /home/za-softcodes/Desktop/FYP/112TranslitrationSphinxTrain/feat \
	-cepext mfc \
	-lsnfn /home/za-softcodes/Desktop/FYP/112TranslitrationSphinxTrain/etc/112Translitration_train.transcription \
	-accumdir /home/za-softcodes/Desktop/FYP/112TranslitrationSphinxTrain/bwaccumdir/112Translitration_buff_1 \
	-varfloor 0.0001 \
	-topn 4 \
	-abeam 1e-90 \
	-bbeam 1e-10 \
	-agc none \
	-cmn current \
	-varnorm no \
	-meanreest yes \
	-varreest yes \
	-2passvar yes \
	-tmatreest yes \
	-fullvar no \
	-diagfull no \
	-feat 1s_c_d_dd \
	-ceplen 13 \
	-timing no 

Current configuration:
[NAME]			[DEFLT]		[VALUE]
-2passvar		no		yes
-abeam			1e-100		1.000000e-90
-accumdir				/home/za-softcodes/Desktop/FYP/112TranslitrationSphinxTrain/bwaccumdir/112Translitration_buff_1
-agc			none		none
-agcthresh		2.0		2.000000e+00
-bbeam			1e-100		1.000000e-10
-cb2mllrfn		.1cls.		.1cls.
-cepdir					/home/za-softcodes/Desktop/FYP/112TranslitrationSphinxTrain/feat
-cepext			mfc		mfc
-ceplen			13		13
-ckptintv				0
-cmn			current		current
-cmninit		8.0		8.0
-ctlfn					/home/za-softcodes/Desktop/FYP/112TranslitrationSphinxTrain/etc/112Translitration_train.fileids
-diagfull		no		no
-dictfn					/home/za-softcodes/Desktop/FYP/112TranslitrationSphinxTrain/etc/112Translitration.dic
-example		no		no
-fdictfn				/home/za-softcodes/Desktop/FYP/112TranslitrationSphinxTrain/etc/112Translitration.filler
-feat			1s_c_d_dd	1s_c_d_dd
-fullsuffixmatch	no		no
-fullvar		no		no
-help			no		no
-hmmdir					
-latdir					
-latext					
-lda					
-ldaaccum		no		no
-ldadim			0		0
-lsnfn					/home/za-softcodes/Desktop/FYP/112TranslitrationSphinxTrain/etc/112Translitration_train.transcription
-lw			11.5		1.150000e+01
-maxuttlen		0		0
-meanfn					/home/za-softcodes/Desktop/FYP/112TranslitrationSphinxTrain/model_parameters/112Translitration.cd_cont_200/means
-meanreest		yes		yes
-mixwfn					/home/za-softcodes/Desktop/FYP/112TranslitrationSphinxTrain/model_parameters/112Translitration.cd_cont_200/mixture_weights
-mixwreest		yes		yes
-mllrmat				
-mmie			no		no
-mmie_type		rand		rand
-moddeffn				/home/za-softcodes/Desktop/FYP/112TranslitrationSphinxTrain/model_architecture/112Translitration.200.mdef
-mwfloor		0.00001		1.000000e-05
-npart					1
-nskip					0
-outphsegdir				
-outputfullpath		no		no
-part					1
-pdumpdir				
-phsegdir				
-phsegext		phseg		phseg
-runlen			-1		-1
-sentdir				
-sentext		sent		sent
-spthresh		0.0		0.000000e+00
-svspec					
-timing			yes		no
-tmatfn					/home/za-softcodes/Desktop/FYP/112TranslitrationSphinxTrain/model_parameters/112Translitration.cd_cont_200/transition_matrices
-tmatreest		yes		yes
-topn			4		4
-tpfloor		0.0001		1.000000e-05
-ts2cbfn				.cont.
-varfloor		0.00001		1.000000e-04
-varfn					/home/za-softcodes/Desktop/FYP/112TranslitrationSphinxTrain/model_parameters/112Translitration.cd_cont_200/variances
-varnorm		no		no
-varreest		yes		yes
-viterbi		no		no

INFO: feat.c(713): Initializing feature stream to type: '1s_c_d_dd', ceplen=13, CMN='current', VARNORM='no', AGC='none'
INFO: cmn.c(142): mean[0]= 12.00, mean[1..12]= 0.0
INFO: main.c(318): Reading /home/za-softcodes/Desktop/FYP/112TranslitrationSphinxTrain/model_architecture/112Translitration.200.mdef
INFO: model_def_io.c(573): Model definition info:
INFO: model_def_io.c(574): 455 total models defined (23 base, 432 tri)
INFO: model_def_io.c(575): 1820 total states
INFO: model_def_io.c(576): 168 total tied states
INFO: model_def_io.c(577): 69 total tied CI states
INFO: model_def_io.c(578): 23 total tied transition matrices
INFO: model_def_io.c(579): 4 max state/model
INFO: model_def_io.c(580): 4 min state/model
INFO: s3mixw_io.c(116): Read /home/za-softcodes/Desktop/FYP/112TranslitrationSphinxTrain/model_parameters/112Translitration.cd_cont_200/mixture_weights [168x1x4 array]
INFO: s3tmat_io.c(115): Read /home/za-softcodes/Desktop/FYP/112TranslitrationSphinxTrain/model_parameters/112Translitration.cd_cont_200/transition_matrices [23x3x4 array]
INFO: mod_inv.c(300): inserting tprob floor 1.000000e-05 and renormalizing
INFO: s3gau_io.c(166): Read /home/za-softcodes/Desktop/FYP/112TranslitrationSphinxTrain/model_parameters/112Translitration.cd_cont_200/means [168x1x4 array]
INFO: s3gau_io.c(166): Read /home/za-softcodes/Desktop/FYP/112TranslitrationSphinxTrain/model_parameters/112Translitration.cd_cont_200/variances [168x1x4 array]
INFO: gauden.c(183): 168 total mgau
INFO: gauden.c(157): 1 feature streams (|0|=39 )
INFO: gauden.c(194): 4 total densities
INFO: gauden.c(97): min_var=1.000000e-04
INFO: gauden.c(172): compute 4 densities/frame
INFO: main.c(430): Will reestimate mixing weights.
INFO: main.c(432): Will reestimate means.
INFO: main.c(434): Will reestimate variances.
INFO: main.c(442): Will reestimate transition matrices
INFO: main.c(455): Reading main lexicon: /home/za-softcodes/Desktop/FYP/112TranslitrationSphinxTrain/etc/112Translitration.dic
INFO: lexicon.c(220): 12 entries added from /home/za-softcodes/Desktop/FYP/112TranslitrationSphinxTrain/etc/112Translitration.dic
INFO: main.c(465): Reading filler lexicon: /home/za-softcodes/Desktop/FYP/112TranslitrationSphinxTrain/etc/112Translitration.filler
INFO: lexicon.c(220): 3 entries added from /home/za-softcodes/Desktop/FYP/112TranslitrationSphinxTrain/etc/112Translitration.filler
INFO: corpus.c(1086): Will process all remaining utts starting at 0
INFO: main.c(665): Reestimation: Baum-Welch
INFO: cmn.c(175): CMN: 10.75  0.07 -0.45  0.34 -0.67 -0.05  0.08 -0.56 -0.23 -0.11 -0.05 -0.15 -0.11 
column defns
	<seq>
	<id>
	<n_frame_in>
	<n_frame_del>
	<n_state_shmm>
	<avg_states_alpha>
	<avg_states_beta>
	<avg_states_reest>
	<avg_posterior_prune>
	<frame_log_lik>
	<utt_log_lik>
	... timing info ... 
utt>     0                    112001  323    0    44 14  1 2 1.631289e-12 7.763283e+00 2.507541e+03
INFO: cmn.c(175): CMN: 10.64 -0.06 -0.44  0.22 -0.69  0.05  0.07 -0.53 -0.21 -0.15 -0.06 -0.13 -0.07 
utt>     1                    112002  291    0    32 11  1 2 1.320721e-12 7.238906e+00 2.106522e+03
INFO: cmn.c(175): CMN: 11.08 -0.07 -0.64  0.57 -0.43 -0.16 -0.02 -0.57 -0.11 -0.06  0.01 -0.15 -0.08 
utt>     2                    112003  352    0    44 12  1 2 1.036238e-12 8.232973e+00 2.898006e+03
INFO: cmn.c(175): CMN: 11.25 -0.05 -0.69  0.35 -0.39 -0.04  0.05 -0.54 -0.13 -0.00  0.02 -0.16 -0.09 
utt>     3                    112004  433    0    56 16  1 2 2.113019e-12 6.630515e+00 2.871013e+03
INFO: cmn.c(175): CMN: 12.01 -0.02 -0.31 -0.19 -0.74  0.08 -0.29 -0.16 -0.03 -0.02 -0.03 -0.01  0.08 
utt>     4                    112001  367    0    44 12  1 2 1.186991e-12 1.286714e+00 4.722239e+02
INFO: cmn.c(175): CMN: 11.20 -0.01 -0.25 -0.41 -0.73  0.19 -0.34 -0.13 -0.10  0.03 -0.05  0.11  0.07 
utt>     5                    112002  349    0    32 9  1 1 5.355217e-13 3.548157e+00 1.238307e+03
INFO: cmn.c(175): CMN: 11.74  0.06 -0.45  0.15 -0.51  0.07 -0.46 -0.13 -0.09  0.05  0.06 -0.10  0.17 
utt>     6                    112003  388    0    44 12  1 1 1.087568e-12 4.734679e+00 1.837055e+03
INFO: cmn.c(175): CMN: 11.18  0.25 -0.34  0.15 -0.60  0.10 -0.46 -0.20 -0.19 -0.02 -0.07 -0.17  0.03 
utt>     7                    112004  513    0    56 13  1 2 1.682255e-12 4.489943e+00 2.303341e+03
INFO: cmn.c(175): CMN:  9.26 -0.50 -0.95  0.06 -0.27  0.05  0.07 -0.27 -0.15 -0.22 -0.29 -0.01 -0.23 
utt>     8                    112001  767    0    44 12  1 1 7.557062e-13 4.159268e+00 3.190159e+03
INFO: cmn.c(175): CMN: 11.09 -0.60 -0.86 -0.28 -0.44  0.29  0.07 -0.36 -0.10 -0.20 -0.34 -0.03 -0.17 
utt>     9                    112002  547    0    32 10  1 1 4.469503e-13 4.511968e+00 2.468047e+03
INFO: cmn.c(175): CMN: 11.46 -0.38 -1.07  0.18 -0.42  0.02  0.18 -0.35 -0.06 -0.13 -0.32 -0.15 -0.10 
utt>    10                    112003  717    0    44 12  1 1 6.804718e-13 5.349151e+00 3.835341e+03
INFO: cmn.c(175): CMN: 11.32 -0.26 -0.99  0.14 -0.38  0.01  0.27 -0.44 -0.10 -0.16 -0.27 -0.23 -0.16 
utt>    11                    112004  890    0    56 14  1 1 4.525241e-13 2.488245e+00 2.214538e+03
INFO: cmn.c(175): CMN: 11.41  0.28 -0.29  0.12 -0.95 -0.14 -0.09 -0.44  0.15 -0.04 -0.14  0.07 -0.21 
utt>    12                    112001  294    0    44 16  1 2 1.642618e-12 7.962235e+00 2.340897e+03
INFO: cmn.c(175): CMN: 11.31  0.17 -0.29 -0.04 -1.03 -0.08 -0.03 -0.36  0.19 -0.03 -0.12  0.13 -0.21 
utt>    13                    112002  255    0    32 14  1 2 7.555476e-13 9.420716e+00 2.402282e+03
INFO: cmn.c(175): CMN: 11.54  0.08 -0.37  0.31 -0.92 -0.13 -0.26 -0.28  0.21 -0.13 -0.02  0.02 -0.25 
utt>    14                    112003  276    0    44 16  1 2 1.654023e-12 9.059557e+00 2.500438e+03
INFO: cmn.c(175): CMN: 11.11  0.46 -0.32  0.11 -0.88 -0.15 -0.20 -0.38  0.18 -0.05  0.02  0.05 -0.25 
utt>    15                    112004  456    0    56 18  1 2 1.480856e-12 8.801377e+00 4.013428e+03
INFO: cmn.c(175): CMN: 12.97  0.18 -0.20  0.04 -0.73  0.10 -0.36 -0.20 -0.13 -0.13 -0.12 -0.26 -0.07 
utt>    16                    112001  271    0    44 15  1 2 2.334572e-12 7.160632e+00 1.940531e+03
INFO: cmn.c(175): CMN: 13.07  0.11 -0.12 -0.14 -0.76  0.17 -0.40 -0.15 -0.16 -0.16 -0.13 -0.16 -0.08 
utt>    17                    112002  216    0    32 13  1 2 1.560220e-12 7.670417e+00 1.656810e+03
INFO: cmn.c(175): CMN: 13.80 -0.15 -0.34  0.41 -0.49 -0.12 -0.51 -0.07 -0.25 -0.06 -0.12 -0.28  0.11 
utt>    18                    112003  278    0    44 13  1 2 1.357893e-12 8.747782e+00 2.431883e+03
INFO: cmn.c(175): CMN: 13.24  0.17 -0.36  0.21 -0.52 -0.11 -0.49 -0.15 -0.19  0.02 -0.09 -0.42 -0.03 
utt>    19                    112004  383    0    56 17  1 2 2.025576e-12 9.119500e+00 3.492768e+03
INFO: cmn.c(175): CMN: 11.12  0.56 -0.35 -0.03 -0.69  0.05 -0.27 -0.54 -0.10 -0.22  0.18 -0.27  0.12 
utt>    20                    112001  307    0    44 14  1 2 2.286676e-12 3.773000e+00 1.158311e+03
INFO: cmn.c(175): CMN: 11.23  0.28 -0.10 -0.17 -0.94  0.17 -0.33 -0.47 -0.08 -0.27  0.20 -0.34  0.19 
utt>    21                    112002  263    0    32 11  1 2 1.254385e-12 4.702395e+00 1.236730e+03
INFO: cmn.c(175): CMN: 11.69  0.30 -0.37  0.31 -0.40 -0.03 -0.48 -0.58 -0.22 -0.30  0.24 -0.39  0.15 
utt>    22                    112003  307    0    44 13  1 2 7.407785e-13 7.667829e+00 2.354024e+03
INFO: cmn.c(175): CMN: 10.13  0.60 -0.27  0.14 -0.40  0.04 -0.45 -0.53 -0.26 -0.21  0.18 -0.41 -0.03 
utt>    23                    112004  495    0    56 15  1 2 1.704324e-12 7.917430e+00 3.919128e+03
INFO: cmn.c(175): CMN: 12.78  0.12 -0.51  0.07 -0.57  0.09 -0.03 -0.33 -0.10 -0.18  0.04 -0.29  0.07 
utt>    24                    112001  294    0    44 16  1 3 2.163299e-12 4.862499e+00 1.429575e+03
INFO: cmn.c(175): CMN: 13.15 -0.23 -0.21 -0.28 -0.31 -0.03 -0.28 -0.27 -0.10  0.14 -0.01 -0.27  0.10 
utt>    25                    112002  208    0    32 11  1 2 2.612150e-12 7.332441e+00 1.525148e+03
INFO: cmn.c(175): CMN: 13.83  0.22 -0.53  0.25 -0.33 -0.17 -0.26 -0.34 -0.07 -0.18  0.10 -0.34  0.23 
utt>    26                    112003  247    0    44 14  1 2 2.937848e-12 3.414790e+00 8.434531e+02
INFO: cmn.c(175): CMN: 12.90  0.46 -0.48  0.07 -0.31 -0.10 -0.25 -0.36 -0.09 -0.10  0.12 -0.35  0.13 
utt>    27                    112004  338    0    56 18  1 3 2.341544e-12 4.807583e+00 1.624963e+03
INFO: cmn.c(175): CMN:  7.27  0.20 -0.24  0.12 -0.59 -0.11  0.05 -0.34  0.04 -0.26  0.01 -0.14 -0.26 
utt>    28                    112001  354    0    44 13  1 2 1.684505e-12 4.631494e+00 1.639549e+03
INFO: cmn.c(175): CMN: 12.48  0.13 -0.18 -0.19 -0.71 -0.09 -0.00 -0.34 -0.01 -0.36 -0.04 -0.05 -0.30 
utt>    29                    112002  216    0    32 13  1 2 1.525393e-12 4.519955e-01 9.763103e+01
INFO: cmn.c(175): CMN: 12.21  0.04 -0.33  0.45 -0.37 -0.24 -0.17 -0.30 -0.06 -0.16 -0.06 -0.22 -0.18 
utt>    30                    112003  315    0    44 15  1 2 2.299434e-12 5.165267e+00 1.627059e+03
INFO: cmn.c(175): CMN: 11.51  0.40 -0.31  0.37 -0.42 -0.21 -0.05 -0.34 -0.08 -0.10  0.04 -0.15 -0.13 
utt>    31                    112004  399    0    56 19  1 3 2.508290e-12 3.914345e+00 1.561824e+03
INFO: cmn.c(175): CMN: 11.23  0.85 -0.17 -0.54  0.21 -0.52 -0.15 -0.25 -0.51  0.05 -0.22 -0.22 -0.32 
utt>    32                    112001  352    0    44 14  1 2 1.367481e-12 -6.709864e+00 -2.361872e+03
INFO: cmn.c(175): CMN: 11.03  0.59 -0.11 -0.47 -0.08 -0.29 -0.15 -0.40 -0.32  0.03 -0.24 -0.16 -0.33 
utt>    33                    112002  323    0    32 9  1 1 8.293952e-13 -4.769921e+00 -1.540684e+03
INFO: cmn.c(175): CMN: 12.04  0.52 -0.29 -0.38  0.41 -0.47 -0.45 -0.15 -0.46 -0.03 -0.20 -0.34 -0.29 
utt>    34                    112003  362    0    44 11  1 2 1.753180e-12 -3.477294e+00 -1.258781e+03
INFO: cmn.c(175): CMN: 11.74  0.87 -0.32 -0.47  0.43 -0.55 -0.26 -0.28 -0.45  0.09 -0.20 -0.29 -0.36 
utt>    35                    112004  459    0    56 14  1 2 1.691672e-12 -5.528717e+00 -2.537681e+03
INFO: cmn.c(175): CMN:  9.76  0.31 -0.86  0.31 -0.75 -0.18  0.17 -0.18 -0.10  0.01 -0.13  0.03 -0.08 
utt>    36                    112001  589    0    44 12  1 2 7.119066e-13 6.308473e+00 3.715691e+03
INFO: cmn.c(175): CMN:  9.90  0.19 -0.88  0.05 -0.82 -0.06  0.19 -0.19 -0.10 -0.00 -0.29  0.03 -0.08 
utt>    37                    112002  511    0    32 10  1 1 6.957188e-13 7.522052e+00 3.843769e+03
INFO: cmn.c(175): CMN: 10.49  0.28 -1.01  0.50 -0.49 -0.31  0.03 -0.37 -0.06  0.04  0.05 -0.00 -0.14 
utt>    38                    112003  600    0    44 12  1 1 1.034069e-12 8.998546e+00 5.399128e+03
INFO: cmn.c(175): CMN:  9.36  0.55 -0.76  0.29 -0.44 -0.26  0.02 -0.46 -0.34  0.02  0.05 -0.05 -0.15 
utt>    39                    112004  819    0    56 13  1 1 7.639244e-13 8.927964e+00 7.312002e+03
INFO: cmn.c(175): CMN:  9.20 -0.12 -0.47 -0.02 -0.41 -0.20  0.30 -0.15 -0.05 -0.02 -0.28  0.04 -0.16 
utt>    40                    112001  913    0    44 10  1 1 7.503850e-13 7.984948e+00 7.290258e+03
INFO: cmn.c(175): CMN:  8.86 -0.24 -0.42 -0.11 -0.40 -0.12  0.30 -0.19  0.01 -0.01 -0.26  0.07 -0.17 
utt>    41                    112002  704    0    32 8  1 1 5.511286e-13 6.843369e+00 4.817732e+03
INFO: cmn.c(175): CMN:  9.97 -0.11 -0.58  0.14 -0.23 -0.34  0.31 -0.27 -0.01  0.07 -0.26  0.03 -0.23 
utt>    42                    112003  817    0    44 9  1 1 5.000777e-13 5.469756e+00 4.468791e+03
INFO: cmn.c(175): CMN: 10.37 -0.16 -0.57  0.15 -0.35 -0.26  0.23 -0.28 -0.14  0.03 -0.23 -0.09 -0.23 
utt>    43                    112004  955    0    56 11  1 1 6.051317e-13 5.214344e+00 4.979698e+03
INFO: cmn.c(175): CMN:  8.88 -0.19 -0.51  0.06 -0.55 -0.27  0.08 -0.38 -0.10  0.00 -0.06  0.06  0.01 
utt>    44                    112001  602    0    44 10  1 1 6.287100e-13 8.128439e+00 4.893320e+03
INFO: cmn.c(175): CMN:  8.06 -0.34 -0.41  0.02 -0.50 -0.19  0.03 -0.32 -0.07  0.01 -0.08  0.02  0.06 
utt>    45                    112002  589    0    32 7  1 1 2.298507e-13 9.895095e+00 5.828211e+03
INFO: cmn.c(175): CMN:  8.53 -0.17 -0.68  0.29 -0.23 -0.29  0.02 -0.50  0.01 -0.03 -0.01  0.02 -0.07 
utt>    46                    112003  613    0    44 9  1 1 2.313673e-13 6.830418e+00 4.187046e+03
INFO: cmn.c(175): CMN:  5.41  0.02 -0.50  0.24 -0.23 -0.17  0.05 -0.38 -0.04  0.03  0.01  0.02 -0.05 
utt>    47                    112004  845    0    56 8  1 1 5.738857e-13 7.385082e+00 6.240394e+03
INFO: cmn.c(175): CMN: 11.45 -0.01 -0.04 -0.33 -0.36  0.01 -0.17 -0.13 -0.08 -0.17 -0.11 -0.09 -0.10 
utt>    48                    112001  337    0    44 14  1 2 9.176538e-13 4.683832e+00 1.578452e+03
INFO: cmn.c(175): CMN: 11.19 -0.22  0.07 -0.34 -0.42  0.10 -0.25 -0.21  0.00 -0.21 -0.11  0.01 -0.10 
utt>    49                    112002  316    0    32 10  1 2 1.124727e-12 5.610942e+00 1.773058e+03
INFO: cmn.c(175): CMN: 11.95 -0.31  0.00 -0.18 -0.10  0.00 -0.36 -0.03 -0.02 -0.26  0.08 -0.14 -0.13 
utt>    50                    112003  366    0    44 12  1 2 1.122332e-12 6.240550e+00 2.284041e+03
INFO: cmn.c(175): CMN: 11.90 -0.07 -0.02 -0.37 -0.11 -0.04 -0.32 -0.11 -0.08 -0.14 -0.02 -0.15 -0.18 
utt>    51                    112004  499    0    56 15  1 2 1.624300e-12 3.752313e+00 1.872404e+03
INFO: cmn.c(175): CMN: 14.21  0.29 -0.87  0.61 -1.07  0.38 -0.31 -0.34 -0.19 -0.31  0.05 -0.39 -0.02 
utt>    52                    112001  200    0    44 18  1 3 3.171979e-12 2.916941e-01 5.833881e+01
INFO: cmn.c(175): CMN: 14.12 -0.03 -0.58  0.46 -1.10  0.32 -0.29 -0.37 -0.09 -0.30 -0.10 -0.17 -0.09 
utt>    53                    112002  166    0    32 13  1 3 1.959970e-12 3.495278e+00 5.802161e+02
INFO: cmn.c(175): CMN: 14.31  0.17 -1.11  0.93 -0.66  0.22 -0.50 -0.37 -0.18 -0.51  0.20 -0.59  0.01 
utt>    54                    112003  218    0    44 15  1 2 2.165829e-12 3.838516e+00 8.367965e+02
INFO: cmn.c(175): CMN: 14.42  0.32 -0.98  0.77 -0.77  0.31 -0.43 -0.33 -0.26 -0.29  0.19 -0.52 -0.08 
utt>    55                    112004  299    0    56 18  1 3 2.661255e-12 3.473521e+00 1.038583e+03
INFO: cmn.c(175): CMN: 14.67 -0.54 -0.59 -0.79 -0.70  0.22 -0.19 -0.00 -0.33  0.09 -0.06 -0.08 -0.21 
utt>    56                    112001  456    0    44 19  1 2 1.140845e-12 6.763386e+00 3.084104e+03
INFO: cmn.c(175): CMN: 14.86 -0.81 -0.80 -0.84 -0.50  0.23 -0.43  0.05 -0.38  0.17  0.01 -0.12 -0.25 
utt>    57                    112002  396    0    32 16  1 1 3.254753e-13 7.093046e+00 2.808846e+03
INFO: cmn.c(175): CMN: 11.29 -0.05 -0.63 -0.52 -0.42  0.05 -0.30 -0.10 -0.23  0.13 -0.07 -0.15 -0.22 
utt>    58                    112003 1245    0    44 8  1 1 2.855886e-13 6.910699e+00 8.603821e+03
INFO: cmn.c(175): CMN: 12.94  0.08 -0.73 -0.52 -0.43 -0.05 -0.03 -0.16 -0.30  0.11  0.04 -0.09 -0.36 
utt>    59                    112004  704    0    56 16  1 1 8.022218e-13 8.451663e+00 5.949971e+03
INFO: cmn.c(175): CMN: 13.25  0.62 -0.93  0.05 -0.64 -0.10 -0.16 -0.29 -0.34 -0.17 -0.22 -0.13 -0.30 
utt>    60                    112001  320    0    44 17  1 3 2.329189e-12 7.463535e+00 2.388331e+03
INFO: cmn.c(175): CMN: 13.45  0.08 -0.72 -0.04 -0.75 -0.11 -0.19 -0.30 -0.23 -0.19 -0.25 -0.16 -0.15 
utt>    61                    112002  265    0    32 12  1 2 9.314411e-13 1.006661e+01 2.667653e+03
INFO: cmn.c(175): CMN: 13.88  0.19 -0.90  0.27 -0.39 -0.03 -0.31 -0.48 -0.22 -0.25 -0.19 -0.10 -0.43 
utt>    62                    112003  336    0    44 14  1 2 9.364191e-13 1.112072e+01 3.736564e+03
INFO: cmn.c(175): CMN: 13.34  0.34 -0.90  0.28 -0.48 -0.10 -0.16 -0.42 -0.29 -0.27 -0.06 -0.03 -0.44 
utt>    63                    112004  472    0    56 17  1 2 1.944377e-12 1.162642e+01 5.487668e+03
INFO: cmn.c(175): CMN: 11.44  1.06 -0.10 -0.43 -0.44 -0.35 -0.17 -0.25 -0.38 -0.12 -0.11 -0.09 -0.14 
utt>    64                    112001  469    0    44 18  1 2 1.709290e-12 3.843993e+00 1.802833e+03
INFO: cmn.c(175): CMN: 11.36  0.78 -0.12 -0.50 -0.51 -0.38 -0.19 -0.18 -0.31 -0.13 -0.08 -0.02 -0.11 
utt>    65                    112002  433    0    32 12  1 1 1.265421e-12 5.688194e+00 2.462988e+03
INFO: cmn.c(175): CMN: 11.56  0.81 -0.20 -0.42 -0.21 -0.34 -0.40 -0.28 -0.23  0.11 -0.01 -0.10 -0.04 
utt>    66                    112003  516    0    44 16  1 2 1.061022e-12 5.005148e+00 2.582657e+03
INFO: cmn.c(175): CMN: 11.66  0.98 -0.17 -0.33 -0.27 -0.34 -0.40 -0.38 -0.33 -0.02  0.02 -0.10 -0.20 
utt>    67                    112004  657    0    56 18  1 2 8.850430e-13 7.283350e+00 4.785161e+03
INFO: cmn.c(175): CMN: 11.99  0.25 -0.19  0.10 -0.61 -0.10 -0.23 -0.24 -0.31 -0.15 -0.14 -0.30 -0.11 
utt>    68                    112001  352    0    44 12  1 2 7.297366e-13 4.577203e+00 1.611176e+03
INFO: cmn.c(175): CMN: 12.41  0.22 -0.15 -0.12 -0.80 -0.06 -0.27 -0.26 -0.22 -0.15 -0.16 -0.30 -0.07 
utt>    69                    112002  286    0    32 11  1 2 9.701508e-13 5.335944e+00 1.526080e+03
INFO: cmn.c(175): CMN: 12.80  0.16 -0.27  0.26 -0.39 -0.10 -0.51 -0.30 -0.39  0.01 -0.19 -0.37 -0.04 
utt>    70                    112003  365    0    44 11  1 2 1.034008e-12 7.448282e+00 2.718623e+03
INFO: cmn.c(175): CMN: 12.71  0.33 -0.34  0.13 -0.46 -0.06 -0.36 -0.30 -0.42  0.07 -0.12 -0.44 -0.14 
utt>    71                    112004  472    0    56 14  1 2 1.264850e-12 6.731440e+00 3.177240e+03
INFO: cmn.c(175): CMN: 13.46  0.60 -0.60 -0.11 -0.81 -0.14 -0.25 -0.19 -0.16 -0.09  0.13 -0.05 -0.25 
utt>    72                    112001  299    0    44 17  1 2 2.116652e-12 1.118966e+00 3.345710e+02
INFO: cmn.c(175): CMN: 13.36  0.60 -0.56 -0.29 -0.81 -0.05 -0.23 -0.23 -0.20 -0.10  0.12 -0.01 -0.22 
utt>    73                    112002  255    0    32 14  1 2 1.794892e-12 3.759177e+00 9.585901e+02
INFO: cmn.c(175): CMN: 13.50  0.73 -0.82  0.41 -0.49 -0.13 -0.35 -0.49 -0.31 -0.21 -0.06 -0.27 -0.20 
utt>    74                    112003  305    0    44 14  1 2 2.366035e-12 6.446183e+00 1.966086e+03
INFO: cmn.c(175): CMN: 13.21  0.66 -0.76  0.31 -0.63 -0.14 -0.20 -0.49 -0.30 -0.08  0.02 -0.18 -0.28 
utt>    75                    112004  422    0    56 15  1 2 2.094595e-12 2.917514e+00 1.231191e+03
INFO: cmn.c(175): CMN: 13.78  0.66 -0.54 -0.23 -0.46 -0.21 -0.22 -0.33 -0.16 -0.11 -0.09 -0.08 -0.32 
utt>    76                    112001  247    0    44 17  1 2 9.575081e-13 1.122570e+01 2.772747e+03
INFO: cmn.c(175): CMN: 13.84  0.53 -0.45 -0.40 -0.61 -0.13 -0.20 -0.32 -0.13 -0.17 -0.11  0.01 -0.28 
utt>    77                    112002  203    0    32 13  1 2 1.821946e-12 1.359034e+01 2.758839e+03
INFO: cmn.c(175): CMN: 13.85  0.56 -0.60 -0.01 -0.20 -0.30 -0.42 -0.31 -0.21  0.03 -0.14 -0.18 -0.31 
utt>    78                    112003  276    0    44 14  1 2 2.009410e-12 1.071863e+01 2.958341e+03
INFO: cmn.c(175): CMN: 13.74  0.55 -0.61 -0.14 -0.29 -0.31 -0.33 -0.28 -0.19  0.02 -0.10 -0.18 -0.38 
utt>    79                    112004  393    0    56 17  1 2 2.035996e-12 1.094682e+01 4.302099e+03
INFO: cmn.c(175): CMN: 12.64  0.69  0.04 -0.13 -0.42 -0.18 -0.41 -0.18 -0.30 -0.27 -0.07 -0.15 -0.22 
utt>    80                    112001  213    0    44 17  1 3 1.742345e-12 1.082731e+01 2.306217e+03
INFO: cmn.c(175): CMN: 12.55  0.41  0.20 -0.28 -0.53 -0.19 -0.39 -0.17 -0.22 -0.23 -0.08 -0.14 -0.20 
utt>    81                    112002  208    0    32 15  1 2 1.254497e-12 9.753913e+00 2.028814e+03
INFO: cmn.c(175): CMN: 12.95  0.55  0.08 -0.14 -0.25 -0.25 -0.55 -0.15 -0.37 -0.26 -0.08 -0.10 -0.36 
utt>    82                    112003  250    0    44 16  1 2 1.754227e-12 9.396465e+00 2.349116e+03
INFO: cmn.c(175): CMN: 12.75  0.51 -0.02 -0.09 -0.30 -0.28 -0.52 -0.12 -0.36 -0.25 -0.04 -0.10 -0.37 
utt>    83                    112004  375    0    56 22  1 2 2.188102e-12 1.053079e+01 3.949045e+03
INFO: cmn.c(175): CMN: 13.23  0.59 -0.88 -0.12 -0.85 -0.28 -0.44 -0.34 -0.21 -0.24 -0.09 -0.15 -0.22 
utt>    84                    112001  208    0    44 19  1 3 1.545589e-12 6.866642e+00 1.428261e+03
INFO: cmn.c(175): CMN: 13.06  0.36 -0.71 -0.12 -0.87 -0.21 -0.46 -0.34 -0.15 -0.25 -0.16 -0.16 -0.20 
utt>    85                    112002  179    0    32 14  1 2 1.557076e-12 6.158475e+00 1.102367e+03
INFO: cmn.c(175): CMN: 13.57  0.35 -1.02  0.23 -0.49 -0.40 -0.52 -0.40 -0.25 -0.23 -0.04 -0.26 -0.32 
utt>    86                    112003  229    0    44 14  1 2 2.230292e-12 7.744733e+00 1.773544e+03
INFO: cmn.c(175): CMN: 13.12  0.52 -1.00 -0.02 -0.63 -0.29 -0.48 -0.36 -0.25 -0.19  0.01 -0.22 -0.38 
utt>    87                    112004  333    0    56 19  1 3 2.662188e-12 7.572369e+00 2.521599e+03
INFO: cmn.c(175): CMN: 13.05  0.38 -0.28  0.28 -0.72 -0.14 -0.13 -0.35 -0.13 -0.13 -0.15 -0.21 -0.17 
utt>    88                    112001  297    0    44 13  1 2 2.115416e-12 7.968540e+00 2.366656e+03
INFO: cmn.c(175): CMN: 13.22  0.44 -0.19 -0.06 -0.91 -0.03 -0.19 -0.45 -0.02 -0.12 -0.21 -0.16 -0.17 
utt>    89                    112002  244    0    32 12  1 2 1.705544e-12 9.672396e+00 2.360065e+03
INFO: cmn.c(175): CMN: 13.37  0.38 -0.38  0.47 -0.52 -0.18 -0.36 -0.49 -0.05 -0.13 -0.17 -0.33 -0.02 
utt>    90                    112003  328    0    44 13  1 2 1.391245e-12 8.018938e+00 2.630212e+03
INFO: cmn.c(175): CMN: 13.33  0.43 -0.41  0.37 -0.52 -0.19 -0.38 -0.42 -0.08 -0.08 -0.15 -0.24 -0.09 
utt>    91                    112004  406    0    56 17  1 2 2.264463e-12 8.644542e+00 3.509684e+03
overall> stats 37977 (-0) 6.162656e+00 2.340392e+05

INFO: s3mixw_io.c(232): Wrote /home/za-softcodes/Desktop/FYP/112TranslitrationSphinxTrain/bwaccumdir/112Translitration_buff_1/mixw_counts [168x1x4 array]
INFO: s3tmat_io.c(174): Wrote /home/za-softcodes/Desktop/FYP/112TranslitrationSphinxTrain/bwaccumdir/112Translitration_buff_1/tmat_counts [23x3x4 array]
INFO: s3gau_io.c(478): Wrote /home/za-softcodes/Desktop/FYP/112TranslitrationSphinxTrain/bwaccumdir/112Translitration_buff_1/gauden_counts with means with vars (2pass) [168x1x4 vector arrays]
INFO: main.c(1014): Counts saved to /home/za-softcodes/Desktop/FYP/112TranslitrationSphinxTrain/bwaccumdir/112Translitration_buff_1
Tue Apr 15 08:42:16 2014
