INFO: cmd_ln.c(691): Parsing command line:
/usr/local/libexec/sphinxtrain/mk_mdef_gen \
	-phnlstfn /home/za-softcodes/Desktop/FYP/112syllableTraining/etc/112syllable.phone \
	-dictfn /home/za-softcodes/Desktop/FYP/112syllableTraining/etc/112syllable.dic \
	-fdictfn /home/za-softcodes/Desktop/FYP/112syllableTraining/etc/112syllable.filler \
	-lsnfn /home/za-softcodes/Desktop/FYP/112syllableTraining/etc/112syllable_train.transcription \
	-ountiedmdef /home/za-softcodes/Desktop/FYP/112syllableTraining/model_architecture/112syllable.untied.mdef \
	-n_state_pm 3 

Current configuration:
[NAME]		[DEFLT]	[VALUE]
-dictfn			/home/za-softcodes/Desktop/FYP/112syllableTraining/etc/112syllable.dic
-example	no	no
-fdictfn		/home/za-softcodes/Desktop/FYP/112syllableTraining/etc/112syllable.filler
-help		no	no
-ignorewpos	no	no
-inCDmdef		
-inCImdef		
-lsnfn			/home/za-softcodes/Desktop/FYP/112syllableTraining/etc/112syllable_train.transcription
-maxtriphones	100000	100000
-minocc		1	1
-n_state_pm	3	3
-oalltphnmdef		
-ocimdef		
-ocountfn		
-ountiedmdef		/home/za-softcodes/Desktop/FYP/112syllableTraining/model_architecture/112syllable.untied.mdef
-phnlstfn		/home/za-softcodes/Desktop/FYP/112syllableTraining/etc/112syllable.phone
-triphnlstfn		

INFO: main.c(95): Will write untied mdef file /home/za-softcodes/Desktop/FYP/112syllableTraining/model_architecture/112syllable.untied.mdef
INFO: mk_mdef_gen.c(189): 0 single word triphones in input phone list
INFO: mk_mdef_gen.c(190): 0 word beginning triphones in input phone list
INFO: mk_mdef_gen.c(191): 0 word internal triphones in input phone list
INFO: mk_mdef_gen.c(192): 0 word ending triphones in input phone list
INFO: mk_mdef_gen.c(280): Reading dict /home/za-softcodes/Desktop/FYP/112syllableTraining/etc/112syllable.dic
INFO: mk_mdef_gen.c(322): 10 words in dict /home/za-softcodes/Desktop/FYP/112syllableTraining/etc/112syllable.dic
INFO: mk_mdef_gen.c(280): Reading dict /home/za-softcodes/Desktop/FYP/112syllableTraining/etc/112syllable.filler
INFO: mk_mdef_gen.c(322): 3 words in dict /home/za-softcodes/Desktop/FYP/112syllableTraining/etc/112syllable.filler
INFO: mk_mdef_gen.c(442): 13 words in dictionary
INFO: mk_mdef_gen.c(443): 120 unique single word triphones in dictionary
INFO: mk_mdef_gen.c(444): 48 unique word beginning triphones in dictionary
INFO: mk_mdef_gen.c(445): 12 unique word internal triphones in dictionary
INFO: mk_mdef_gen.c(446): 40 unique word ending triphones in dictionary
INFO: mk_mdef_gen.c(479): Out of vocabulary words in transcript will be mapped to SIL!
INFO: mk_mdef_gen.c(593): 1104 words in transcripts
INFO: mk_mdef_gen.c(594): 92 single word triphones in transcripts
INFO: mk_mdef_gen.c(595): 460 word beginning triphones in transcripts
INFO: mk_mdef_gen.c(596): 598 word internal triphones in transcripts
INFO: mk_mdef_gen.c(597): 230 word ending triphones in transcripts
INFO: mk_mdef_gen.c(640): 1380 triphones extracted from transcripts
INFO: mk_mdef_gen.c(641): 28 unique triphones extracted from transcripts
INFO: mk_mdef_gen.c(642): 0 triphones occur once in the transcripts
INFO: mk_mdef_gen.c(643): 0 triphones occur twice in the transcripts
INFO: mk_mdef_gen.c(644): 0 triphones occur thrice in the transcripts
INFO: mk_mdef_gen.c(645): The rest of the triphones occur more than three times
INFO: mk_mdef_gen.c(646): Count threshold is 1
INFO: mk_mdef_gen.c(897): 24 n_base, 28 n_tri
INFO: mk_mdef_gen.c(969): Wrote mdef file /home/za-softcodes/Desktop/FYP/112syllableTraining/model_architecture/112syllable.untied.mdef
Tue Apr 15 18:39:45 2014
