INFO: cmd_ln.c(691): Parsing command line:
/usr/local/libexec/sphinxtrain/bldtree \
	-treefn /home/za-softcodes/Desktop/FYP/quranDataForSphinxTrain/trees/quranData.unpruned/KU-0.dtree \
	-moddeffn /home/za-softcodes/Desktop/FYP/quranDataForSphinxTrain/model_architecture/quranData.untied.mdef \
	-mixwfn /home/za-softcodes/Desktop/FYP/quranDataForSphinxTrain/model_parameters/quranData.cd_cont_untied/mixture_weights \
	-ts2cbfn .cont. \
	-mwfloor 1e-08 \
	-psetfn /home/za-softcodes/Desktop/FYP/quranDataForSphinxTrain/model_architecture/quranData.tree_questions \
	-phone KU \
	-state 0 \
	-stwt 1.0,0.05,0.0 \
	-meanfn /home/za-softcodes/Desktop/FYP/quranDataForSphinxTrain/model_parameters/quranData.cd_cont_untied/means \
	-varfn /home/za-softcodes/Desktop/FYP/quranDataForSphinxTrain/model_parameters/quranData.cd_cont_untied/variances \
	-fullvar no \
	-ssplitmin 1 \
	-ssplitmax 7 \
	-ssplitthr 0 \
	-csplitmin 1 \
	-csplitmax 2000 \
	-csplitthr 0 

Current configuration:
[NAME]		[DEFLT]	[VALUE]
-allphones	no	no
-cntthresh	0.00001	1.000000e-05
-csplitmax	100	2000
-csplitmin	1	1
-csplitthr	8e-4	0.000000e+00
-example	no	no
-fullvar	no	no
-help		no	no
-meanfn			/home/za-softcodes/Desktop/FYP/quranDataForSphinxTrain/model_parameters/quranData.cd_cont_untied/means
-mixwfn			/home/za-softcodes/Desktop/FYP/quranDataForSphinxTrain/model_parameters/quranData.cd_cont_untied/mixture_weights
-moddeffn		/home/za-softcodes/Desktop/FYP/quranDataForSphinxTrain/model_architecture/quranData.untied.mdef
-mwfloor	1e-4	1.000000e-08
-phone			KU
-psetfn			/home/za-softcodes/Desktop/FYP/quranDataForSphinxTrain/model_architecture/quranData.tree_questions
-ssplitmax	5	7
-ssplitmin	1	1
-ssplitthr	8e-4	0.000000e+00
-state			0
-stwt			1.0,0.05,0.0,
-treefn			/home/za-softcodes/Desktop/FYP/quranDataForSphinxTrain/trees/quranData.unpruned/KU-0.dtree
-ts2cbfn	.semi.	.cont.
-varfloor	0.00001	1.000000e-05
-varfn			/home/za-softcodes/Desktop/FYP/quranDataForSphinxTrain/model_parameters/quranData.cd_cont_untied/variances

INFO: main.c(223): Reading: /home/za-softcodes/Desktop/FYP/quranDataForSphinxTrain/model_architecture/quranData.untied.mdef
INFO: model_def_io.c(573): Model definition info:
INFO: model_def_io.c(574): 57 total models defined (24 base, 33 tri)
INFO: model_def_io.c(575): 228 total states
INFO: model_def_io.c(576): 171 total tied states
INFO: model_def_io.c(577): 72 total tied CI states
INFO: model_def_io.c(578): 24 total tied transition matrices
INFO: model_def_io.c(579): 4 max state/model
INFO: model_def_io.c(580): 4 min state/model
INFO: main.c(242): Building trees for [KU HOO FU s] through [KU HOO FU s]
INFO: main.c(268): Covering states |[111 113]| == 3
INFO: main.c(275): Reading: /home/za-softcodes/Desktop/FYP/quranDataForSphinxTrain/model_parameters/quranData.cd_cont_untied/mixture_weights
INFO: s3mixw_io.c(172): Read /home/za-softcodes/Desktop/FYP/quranDataForSphinxTrain/model_parameters/quranData.cd_cont_untied/mixture_weights [3x1x1 array]
INFO: main.c(311): 1 of 1 models have observation count greater than 0.000010
INFO: main.c(95): nrm stwt: 0.952 0.048 0.000 
INFO: s3gau_io.c(166): Read /home/za-softcodes/Desktop/FYP/quranDataForSphinxTrain/model_parameters/quranData.cd_cont_untied/means [171x1x1 array]
INFO: s3gau_io.c(166): Read /home/za-softcodes/Desktop/FYP/quranDataForSphinxTrain/model_parameters/quranData.cd_cont_untied/variances [171x1x1 array]
INFO: main.c(549): Reading: /home/za-softcodes/Desktop/FYP/quranDataForSphinxTrain/model_architecture/quranData.tree_questions
INFO: main.c(587): 180 total simple questions (172 phone; 8 word bndry)
INFO: main.c(589): 42 Left Only questions, and 42 Right Only questions
INFO: dtree.c(1315): Comp split 0
INFO: dtree.c(1324): stop. b_n->wt_ent_dec (0.000e+00) <= 0
!!!!!!!!Allocated 68 lines
Tue Apr 15 08:41:50 2014
